objid	container	server_template_crc	cell_index	px	py	pz	qw	qx	qy	qz	scripts	objvars
i	i	h	i	f	f	f	f	f	f	f	s	p
5126308	0	object/building/general/lok_nymstheme_pirate_cave.iff	0	1099.73	17.3403	1379.94	-0.663731	0	0.747971	0		$|
5126309	5126308	object/cell/cell.iff	1	0	0	0	1	0	0	0		$|
5126310	5126308	object/cell/cell.iff	2	0	0	0	1	0	0	0		$|
5126311	5126308	object/cell/cell.iff	3	0	0	0	1	0	0	0		$|
5126312	5126308	object/cell/cell.iff	4	0	0	0	1	0	0	0		$|
5126313	5126308	object/cell/cell.iff	5	0	0	0	1	0	0	0		$|
5126314	5126308	object/cell/cell.iff	6	0	0	0	1	0	0	0		$|
5126315	5126308	object/cell/cell.iff	7	0	0	0	1	0	0	0		$|
5126316	5126308	object/cell/cell.iff	8	0	0	0	1	0	0	0		$|
5126317	5126308	object/cell/cell.iff	9	0	0	0	1	0	0	0		$|
5126318	5126308	object/cell/cell.iff	10	0	0	0	1	0	0	0		$|
5126319	5126308	object/cell/cell.iff	11	0	0	0	1	0	0	0		$|
5126320	5126308	object/cell/cell.iff	12	0	0	0	1	0	0	0		$|
5126321	5126308	object/cell/cell.iff	13	0	0	0	1	0	0	0		$|
5126322	5126308	object/cell/cell.iff	14	0	0	0	1	0	0	0		$|
5126323	5126308	object/cell/cell.iff	15	0	0	0	1	0	0	0		$|
5126324	5126308	object/cell/cell.iff	16	0	0	0	1	0	0	0		$|
5126325	5126308	object/cell/cell.iff	17	0	0	0	1	0	0	0		$|
5126326	5126308	object/cell/cell.iff	18	0	0	0	1	0	0	0		$|
5126327	5126308	object/cell/cell.iff	19	0	0	0	1	0	0	0		$|
5126328	5126308	object/cell/cell.iff	20	0	0	0	1	0	0	0		$|
5126329	5126308	object/cell/cell.iff	21	0	0	0	1	0	0	0		$|
5126330	5126308	object/cell/cell.iff	22	0	0	0	1	0	0	0		$|
5126331	5126308	object/cell/cell.iff	23	0	0	0	1	0	0	0		$|
5126332	5126308	object/cell/cell.iff	24	0	0	0	1	0	0	0		$|
5126333	5126308	object/cell/cell.iff	25	0	0	0	1	0	0	0		$|
5126334	5126308	object/cell/cell.iff	26	0	0	0	1	0	0	0		$|
5126335	5126308	object/cell/cell.iff	27	0	0	0	1	0	0	0		$|
5126336	5126308	object/cell/cell.iff	28	0	0	0	1	0	0	0		$|
4777534	5126336	object/tangible/collection/rare_melee_obsidian_lance.iff	28	-63.4067	-64.4187	-173.502	-0.261437	0.654319	-0.650354	0.283826		$|
5126337	5126308	object/cell/cell.iff	29	0	0	0	1	0	0	0		$|
5645596	0	object/static/structure/tatooine/pillar_watto_junkshop.iff	0	1071.68	12.0381	1382.83	0.687013	0.700334	0.138323	-0.135692		$|
5645597	0	object/static/structure/tatooine/pillar_watto_junkshop.iff	0	1072.88	11.994	1371.35	1	0	0	0		$|
5645598	0	object/static/structure/tatooine/pillar_watto_junkshop.iff	0	1060.54	12.1672	1381.49	1	0	0	0		$|
5645599	0	object/static/structure/tatooine/pillar_watto_junkshop.iff	0	1061.65	12.1626	1370.16	1	0	0	0		$|
5645602	0	object/static/structure/tatooine/wall_gate_tatooine_style_02.iff	0	1057.1	11.7594	1375.31	0.998988	0	-0.0449848	0		$|
8405548	0	object/building/military/military_base_gate_house_imperial.iff	0	1526.65	17.6738	1185.68	0.997189	0	-0.0749297	0		$|
8405549	0	object/static/structure/general/banner_imperial_style_01.iff	0	1527.5	17.4331	1174.32	0.998488	0	-0.0549723	0		$|
8405550	0	object/static/structure/general/banner_imperial_style_01.iff	0	1533.08	17.5102	1175.02	0.997551	0	-0.0699428	0		$|
8405551	0	object/static/structure/tatooine/debris_tatt_crate_1.iff	0	1521.01	18.5111	1180.65	0.997551	-0.0699428	0	0		$|
8405552	0	object/static/structure/tatooine/debris_tatt_crate_metal_1.iff	0	1520.03	18.6154	1182.15	1	0	0	0		$|
8405553	0	object/static/structure/tatooine/debris_tatt_drum_dented_1.iff	0	1520.09	18.6141	1181.59	0.935897	-0.352274	0	0		$|
8405554	0	object/static/structure/tatooine/debris_tatt_drum_storage_1.iff	0	1520.04	18.1948	1180.15	1	0	0	0		$|
8655640	0	object/static/structure/corellia/corl_imprv_wall_4x16_s03.iff	0	1207	16.4753	1813	1	0	0	0		$|
8655641	0	object/static/structure/corellia/corl_imprv_wall_4x16_s03.iff	0	1208	16.9994	1807	1	0	0	0		$|
8655646	0	object/static/structure/military/military_wall_strong_imperial_style_01.iff	0	1199	16.9735	1810	0.707107	0	-0.707106	0		$|
8655647	0	object/static/structure/military/military_wall_strong_imperial_style_01.iff	0	1215	16.7243	1810	0.707107	0	0.707107	0		$|
8655648	0	object/static/installation/mockup_power_generator_wind_style_1.iff	0	1195	15.5996	1819	1	0	0	0		$|
8655649	0	object/static/installation/mockup_power_generator_wind_style_1.iff	0	1207	16.0862	1819	1	0	0	0		$|
8655650	0	object/static/installation/mockup_power_generator_wind_style_1.iff	0	1218	16.5606	1819	1	0	0	0		$|
8655651	0	object/static/installation/mockup_power_generator_wind_style_1.iff	0	1194.82	15.559	1800.95	1	0	0	0		$|
8655652	0	object/static/installation/mockup_power_generator_wind_style_1.iff	0	1206.82	16.6673	1800.95	1	0	0	0		$|
8655653	0	object/static/installation/mockup_power_generator_wind_style_1.iff	0	1217.82	17.5125	1800.95	1	0	0	0		$|
8655654	0	object/static/structure/corellia/corl_power_transformer_s01.iff	0	1202.78	16.4655	1809.98	0.707107	0	0.707107	0		$|
8655655	0	object/static/structure/corellia/corl_power_arial_prime.iff	0	1211.74	17.0198	1808.11	1	0	0	0		$|
8655656	0	object/static/structure/corellia/corl_power_arial_thin.iff	0	1212.5	17.0712	1808.78	1	0	0	0		$|
8655657	0	object/static/structure/corellia/corl_power_box_node.iff	0	1208.94	16.7822	1810.07	1	0	0	0		$|
9505620	0	object/static/structure/general/debris_deathstar_storage.iff	0	454.741	11.9146	23.7126	-0.431177	0	0.902268	0		$|
9505621	0	object/static/structure/general/prp_junk_s1.iff	0	447.313	12.0576	24.0056	0.636654	-0.339938	-0.328001	0.609532		$|
9505622	0	object/static/structure/general/prp_junk_s8.iff	0	445.079	12.4529	23.1974	0.770827	0.167578	0.405653	-0.461724		$|
9505623	0	object/static/structure/general/prp_junk_s6.iff	0	445.6	12.497	17.7349	-0.448843	-0.473158	0.529349	0.542634		$|
9505627	0	object/static/structure/general/prp_junk_s2.iff	0	446.761	11.7692	18.5955	0.0433939	0.981045	0.188674	-0.00834551		$|
9505628	0	object/static/structure/general/trash_pile_s01.iff	0	447.396	11.9254	16.4557	1	0	0	0		$|
9505629	0	object/static/structure/general/trash_pile_s01.iff	0	446.687	11.8872	17.3727	-0.458047	0	0.888928	0		$|
9505630	0	object/static/structure/general/trash_pile_s01.iff	0	447.409	11.9	17.2488	0.830941	0	-0.556361	0		$|
9505631	0	object/static/structure/general/trash_pile_s01.iff	0	445.299	11.9333	21.6362	1	0	0	0		$|
9505632	0	object/static/structure/general/trash_pile_s01.iff	0	444.591	11.8951	22.5532	-0.458047	0	0.888928	0		$|
9505633	0	object/static/structure/general/trash_pile_s01.iff	0	445.312	11.908	22.4293	0.83094	0	-0.556361	0		$|
9505634	0	object/static/structure/general/trash_pile_s01.iff	0	448.842	11.9946	23.0983	1	0	0	0		$|
9505635	0	object/static/structure/general/trash_pile_s01.iff	0	448.133	11.9564	24.0153	-0.458047	0	0.888928	0		$|
9505636	0	object/static/structure/general/trash_pile_s01.iff	0	448.855	11.9693	23.8914	0.83094	0	-0.556361	0		$|
9505637	0	object/static/structure/general/trash_pile_s01.iff	0	455.253	12.1732	18.1633	1	0	0	0		$|
9505638	0	object/static/structure/general/trash_pile_s01.iff	0	454.544	12.135	19.0803	-0.458047	0	0.888928	0		$|
9505639	0	object/static/structure/general/trash_pile_s01.iff	0	455.266	12.1479	18.9564	0.83094	0	-0.556361	0		$|
9505640	0	object/static/structure/general/trash_pile_s01.iff	0	456.672	12.1808	18.4124	1	0	0	0		$|
9505641	0	object/static/structure/general/trash_pile_s01.iff	0	455.963	12.1426	19.3293	-0.458047	0	0.888928	0		$|
9505642	0	object/static/structure/general/trash_pile_s01.iff	0	456.685	12.1555	19.2054	0.83094	0	-0.556361	0		$|
9505643	0	object/static/structure/corellia/corl_tent_small.iff	0	452.709	12.0924	15.9574	0.865324	0	-0.501213	0		$|
9505644	0	object/static/structure/tatooine/debris_tatt_crate_1.iff	0	450.986	12.0961	15.91	1	0	0	0		$|
9505645	0	object/static/structure/tatooine/debris_tatt_crate_1.iff	0	451.743	12.0105	17.7828	0.728272	0	-0.685289	0		$|
9505646	0	object/tangible/camp/camp_cot.iff	0	453.713	12.195	15.2456	0.891568	0	-0.452886	0		$|
9505648	0	object/static/structure/general/campfire_fresh.iff	0	449.394	11.9584	19.6254	1	0	0	0		$|
3515434	0	object/tangible/poi/spawnegg/exterior_spawnegg.iff	0	1201.795166	15.80171013	1822.067505	1	0	0	0		$|
3515443	0	object/tangible/poi/spawnegg/exterior_spawnegg.iff	0	448.955078	12.16427898	13.842407	1	0	0	0		$|
3515444	0	object/tangible/poi/spawnegg/exterior_spawnegg.iff	0	451.946045	12.10436726	12.686523	1	0	0	0		$|
