component	engine	booster	weapon_0	weapon_1	weapon_2	weapon_3	weapon_4	weapon_5	weapon_6	weapon_7
s	s	s	s	s	s	s	s	s	s	s
collection_reward_booster_01_mk1		gunship_imperial_booster_s01:engine_on1								
collection_reward_booster_01_mk2		gunship_imperial_booster_s01:engine_on1								
collection_reward_booster_01_mk3		gunship_imperial_booster_s01:engine_on1								
collection_reward_booster_01_mk4		gunship_imperial_booster_s01:engine_on1								
collection_reward_booster_01_mk5		gunship_imperial_booster_s01:engine_on1								
bst_corellian_advanced_thrust_enhancer		gunship_imperial_booster_s01:engine_on1								
bst_corellian_elite_thrust_enhancer		gunship_imperial_booster_s01:engine_on1								
bst_corellian_experimental_tjh3		gunship_imperial_booster_s01:engine_on1								
bst_corellian_heavy_thrust_enhancer		gunship_imperial_booster_s01:engine_on1								
bst_corellian_highly_modified_elite_thrust_enhancer		gunship_imperial_booster_s01:engine_on1								
bst_corellian_performance_advanced_thrust_enhancer		gunship_imperial_booster_s01:engine_on1								
bst_corellian_promotional_standard_thrust_enhancer		gunship_imperial_booster_s01:engine_on1								
bst_corellian_standard_thrust_enhancer		gunship_imperial_booster_s01:engine_on1								
bst_corellian_tjh3		gunship_imperial_booster_s01:engine_on1								
bst_corellian_tuned_heavy_thrust_enhancer		gunship_imperial_booster_s01:engine_on1
bst_cygnus_flashboost3		gunship_imperial_booster_s01:engine_on1
bst_cygnus_flashboost4		gunship_imperial_booster_s01:engine_on1
bst_elite_booster		gunship_imperial_booster_s01:engine_on1
bst_freitek_outrunner_x1		gunship_imperial_booster_s01:engine_on1
bst_gallofree_light		gunship_imperial_booster_s01:engine_on1
bst_generic		gunship_imperial_booster_s01:engine_on1
bst_incom_deluxe_fynock		gunship_imperial_booster_s01:engine_on1
bst_incom_elite_sls_1		gunship_imperial_booster_s01:engine_on1
bst_incom_enhanced_mynock		gunship_imperial_booster_s01:engine_on1
bst_incom_fynock		gunship_imperial_booster_s01:engine_on1
bst_incom_intimidator_mk1		gunship_imperial_booster_s01:engine_on1
bst_incom_intimidator_mk2		gunship_imperial_booster_s01:engine_on1
bst_incom_intimidator_mk3		gunship_imperial_booster_s01:engine_on1
bst_incom_intimidator_mk4		gunship_imperial_booster_s01:engine_on1
bst_incom_mynock		gunship_imperial_booster_s01:engine_on1
bst_incom_nkj31		gunship_imperial_booster_s01:engine_on1
bst_incom_performance_nkj31		gunship_imperial_booster_s01:engine_on1
bst_incom_sls_1		gunship_imperial_booster_s01:engine_on1
bst_incom_supercharged_vynock		gunship_imperial_booster_s01:engine_on1
bst_incom_vynock		gunship_imperial_booster_s01:engine_on1
bst_kde_br12		gunship_imperial_booster_s01:engine_on1
bst_kessel_imperial_cygnus_hyperthrust		gunship_imperial_booster_s01:engine_on1
bst_kessel_imperial_sds_experimental_b7		gunship_imperial_booster_s01:engine_on1
bst_kessel_imperial_sfs_ultra_thrust		gunship_imperial_booster_s01:engine_on1
bst_kessel_rebel_incom_quicksilver		gunship_imperial_booster_s01:engine_on1
bst_kessel_rebel_incom_windrunner		gunship_imperial_booster_s01:engine_on1
bst_kessel_rebel_mandal_lightning_m1		gunship_imperial_booster_s01:engine_on1
bst_koensayr_advanced		gunship_imperial_booster_s01:engine_on1
bst_koensayr_charged_advanced		gunship_imperial_booster_s01:engine_on1
bst_koensayr_deluxe_elite		gunship_imperial_booster_s01:engine_on1
bst_koensayr_elite		gunship_imperial_booster_s01:engine_on1
bst_koensayr_evh12		gunship_imperial_booster_s01:engine_on1
bst_koensayr_heavy		gunship_imperial_booster_s01:engine_on1
bst_koensayr_modified_heavy		gunship_imperial_booster_s01:engine_on1
bst_koensayr_racer_mk1		gunship_imperial_booster_s01:engine_on1
bst_koensayr_racer_mk2		gunship_imperial_booster_s01:engine_on1
bst_koensayr_racer_mk3		gunship_imperial_booster_s01:engine_on1
bst_koensayr_racer_mk4		gunship_imperial_booster_s01:engine_on1
bst_koensayr_special_evh12		gunship_imperial_booster_s01:engine_on1
bst_koensayr_improved_standard		gunship_imperial_booster_s01:engine_on1
bst_koensayr_standard		gunship_imperial_booster_s01:engine_on1
bst_kse_als_1		gunship_imperial_booster_s01:engine_on1
bst_kse_bti1		gunship_imperial_booster_s01:engine_on1
bst_kse_bti2		gunship_imperial_booster_s01:engine_on1
bst_kse_bti3		gunship_imperial_booster_s01:engine_on1
bst_kse_cb6		gunship_imperial_booster_s01:engine_on1
bst_kse_deluxe_bti3		gunship_imperial_booster_s01:engine_on1
bst_kse_elite_als_1		gunship_imperial_booster_s01:engine_on1
bst_kse_enhanced_bti2		gunship_imperial_booster_s01:engine_on1
bst_kse_performance_bti1		gunship_imperial_booster_s01:engine_on1
bst_kse_performance_cb6		gunship_imperial_booster_s01:engine_on1
bst_kuat_military_mk1		gunship_imperial_booster_s01:engine_on1
bst_kuat_military_mk2		gunship_imperial_booster_s01:engine_on1
bst_kuat_military_mk3		gunship_imperial_booster_s01:engine_on1
bst_kuat_military_mk4		gunship_imperial_booster_s01:engine_on1
bst_mandal_deluxe_jbj_mk4		gunship_imperial_booster_s01:engine_on1
bst_mandal_enhanced_jbj_mk1		gunship_imperial_booster_s01:engine_on1
bst_mandal_improved_jbj_mk3		gunship_imperial_booster_s01:engine_on1
bst_mandal_jbj_mk1		gunship_imperial_booster_s01:engine_on1
bst_mandal_jbj_mk2		gunship_imperial_booster_s01:engine_on1
bst_mandal_jbj_mk3		gunship_imperial_booster_s01:engine_on1
bst_mandal_jbj_mk4		gunship_imperial_booster_s01:engine_on1
bst_mandal_jbj_mk5		gunship_imperial_booster_s01:engine_on1
bst_mandal_limited_jbj_mk5		gunship_imperial_booster_s01:engine_on1
bst_mandal_modified_jbj_mk2		gunship_imperial_booster_s01:engine_on1
bst_mission_reward_imperial_rss_ion_booster		gunship_imperial_booster_s01:engine_on1
bst_mission_reward_neutral_mandal_m_series		gunship_imperial_booster_s01:engine_on1
bst_mission_reward_neutral_mandal_q_series		gunship_imperial_booster_s01:engine_on1
bst_mission_reward_rebel_novaldex_hypernova		gunship_imperial_booster_s01:engine_on1
bst_mission_reward_rebel_qualdex_halcyon		gunship_imperial_booster_s01:engine_on1
bst_mk1		gunship_imperial_booster_s01:engine_on1
bst_mk2		gunship_imperial_booster_s01:engine_on1
bst_mk3		gunship_imperial_booster_s01:engine_on1
bst_mk4		gunship_imperial_booster_s01:engine_on1
bst_mk5		gunship_imperial_booster_s01:engine_on1
bst_moncal_advanced		gunship_imperial_booster_s01:engine_on1
bst_moncal_charged_heavy		gunship_imperial_booster_s01:engine_on1
bst_moncal_deluxe_standard		gunship_imperial_booster_s01:engine_on1
bst_moncal_elite		gunship_imperial_booster_s01:engine_on1
bst_moncal_enhanced_elite		gunship_imperial_booster_s01:engine_on1
bst_moncal_heavy		gunship_imperial_booster_s01:engine_on1
bst_moncal_jlc37		gunship_imperial_booster_s01:engine_on1
bst_moncal_limited_jlc37		gunship_imperial_booster_s01:engine_on1
bst_moncal_rare_advanced		gunship_imperial_booster_s01:engine_on1
bst_moncal_standard		gunship_imperial_booster_s01:engine_on1
bst_nova_breaker		gunship_imperial_booster_s01:engine_on1
bst_novaldex_pulsar		gunship_imperial_booster_s01:engine_on1
bst_novaldex_pulsar_advanced		gunship_imperial_booster_s01:engine_on1
bst_novaldex_quasar		gunship_imperial_booster_s01:engine_on1
bst_novaldex_quasar_advanced		gunship_imperial_booster_s01:engine_on1
bst_qualdex_xboost_mk1		gunship_imperial_booster_s01:engine_on1
bst_qualdex_xboost_mk2		gunship_imperial_booster_s01:engine_on1
bst_qualdex_xboost_mk3		gunship_imperial_booster_s01:engine_on1
bst_qualdex_xboost_mk4		gunship_imperial_booster_s01:engine_on1
bst_reward_incom_elite		gunship_imperial_booster_s01:engine_on1
bst_reward_koensayr_elite		gunship_imperial_booster_s01:engine_on1
bst_reward_kuat_elite		gunship_imperial_booster_s01:engine_on1
bst_reward_novaldex_elite		gunship_imperial_booster_s01:engine_on1
bst_reward_qualdex_elite		gunship_imperial_booster_s01:engine_on1
bst_rss_special		gunship_imperial_booster_s01:engine_on1
bst_sap_imperial_1		gunship_imperial_booster_s01:engine_on1
bst_sap_imperial_2		gunship_imperial_booster_s01:engine_on1
bst_sds_enhanced_imperial_2		gunship_imperial_booster_s01:engine_on1
bst_sfs_imperial_1		gunship_imperial_booster_s01:engine_on1
bst_sfs_imperial_2		gunship_imperial_booster_s01:engine_on1
bst_slayn_ion_booster_mk1		gunship_imperial_booster_s01:engine_on1
bst_sorosuub_enhanced_liberator_mk4		gunship_imperial_booster_s01:engine_on1
bst_sorosuub_improved_liberator_mk2		gunship_imperial_booster_s01:engine_on1
bst_sorosuub_liberator_mk1		gunship_imperial_booster_s01:engine_on1
bst_sorosuub_liberator_mk2		gunship_imperial_booster_s01:engine_on1
bst_sorosuub_liberator_mk3		gunship_imperial_booster_s01:engine_on1
bst_sorosuub_liberator_mk4		gunship_imperial_booster_s01:engine_on1
bst_sorosuub_liberator_mk5		gunship_imperial_booster_s01:engine_on1
bst_sorosuub_prized_liberator_mk1		gunship_imperial_booster_s01:engine_on1
bst_sorosuub_supercharged_liberator_mk3		gunship_imperial_booster_s01:engine_on1
bst_sorosuub_well_tuned_liberator_mk5		gunship_imperial_booster_s01:engine_on1
bst_subpro_accelatron_mk1		gunship_imperial_booster_s01:engine_on1
bst_subpro_accelatron_mk2		gunship_imperial_booster_s01:engine_on1
bst_subpro_accelatron_mk3		gunship_imperial_booster_s01:engine_on1
bst_subpro_accelatron_mk4		gunship_imperial_booster_s01:engine_on1
bst_subpro_accelatron_mk5		gunship_imperial_booster_s01:engine_on1
bst_subpro_deluxe_accelatron_mk3		gunship_imperial_booster_s01:engine_on1
bst_subpro_elite_accelatron_mk5		gunship_imperial_booster_s01:engine_on1
bst_subpro_enhanced_accelatron_mk2		gunship_imperial_booster_s01:engine_on1
bst_subpro_modified_accelatron_mk4		gunship_imperial_booster_s01:engine_on1
bst_subpro_tuned_accelatron_mk1		gunship_imperial_booster_s01:engine_on1
bst_surronian_accelerator_mk1		gunship_imperial_booster_s01:engine_on1
bst_surronian_accelerator_mk2		gunship_imperial_booster_s01:engine_on1
bst_surronian_nomad_x4		gunship_imperial_booster_s01:engine_on1
bst_surronian_nomad_x8		gunship_imperial_booster_s01:engine_on1
bst_tiefighter_basic		gunship_imperial_booster_s01:engine_on1
bst_xwing_booster_s01		gunship_imperial_booster_s01:engine_on1
bst_z95_basic		gunship_imperial_booster_s01:engine_on1
eng_bezelbok_kessel_runner	gunship_imperial_engine_s01:engine_on1	
eng_corellian_cruiser_grade_mk1	gunship_imperial_engine_s01:engine_on1	
eng_corellian_cruiser_grade_mk2	gunship_imperial_engine_s01:engine_on1	
eng_corellian_deluxe_cruiser_grade_mk1	gunship_imperial_engine_s01:engine_on1	
eng_crafted_incom_fusialthrust	gunship_imperial_engine_s01:engine_on1	
eng_crafted_novaldex_eventhorizon	gunship_imperial_engine_s01:engine_on1	
eng_crafted_qualdex_kyromaster	gunship_imperial_engine_s01:engine_on1	
eng_cygnus_hd3	gunship_imperial_engine_s01:engine_on1	
eng_cygnus_hd7	gunship_imperial_engine_s01:engine_on1	
eng_cygnus_hd8	gunship_imperial_engine_s01:engine_on1	
eng_cygnus_hd_5	gunship_imperial_engine_s01:engine_on1
eng_cygnus_hdx	gunship_imperial_engine_s01:engine_on1
eng_damorian_rx7	gunship_imperial_engine_s01:engine_on1
eng_elite_engine	gunship_imperial_engine_s01:engine_on1
eng_elite_mk2	gunship_imperial_engine_s01:engine_on1
eng_freitek_dual_jet	gunship_imperial_engine_s01:engine_on1
eng_gallofree_advanced	gunship_imperial_engine_s01:engine_on1
eng_gallofree_jx2	gunship_imperial_engine_s01:engine_on1
eng_gallofree_jx3	gunship_imperial_engine_s01:engine_on1
eng_generic	gunship_imperial_engine_s01:engine_on1
eng_h17_singularity	gunship_imperial_engine_s01:engine_on1
eng_haor_chall_old_engine	gunship_imperial_engine_s01:engine_on1
eng_incom_advanced	gunship_imperial_engine_s01:engine_on1
eng_incom_advanced_fusialthrust	gunship_imperial_engine_s01:engine_on1
eng_incom_e16	gunship_imperial_engine_s01:engine_on1
eng_incom_elite	gunship_imperial_engine_s01:engine_on1
eng_incom_fusialthrust	gunship_imperial_engine_s01:engine_on1
eng_incom_fusialthrust_2	gunship_imperial_engine_s01:engine_on1
eng_incom_heavy_fusialthrust	gunship_imperial_engine_s01:engine_on1
eng_incom_improved_fusialthrust_2	gunship_imperial_engine_s01:engine_on1
eng_incom_light_fusialthrust	gunship_imperial_engine_s01:engine_on1
eng_koensayr_advanced	gunship_imperial_engine_s01:engine_on1
eng_koensayr_dual_small_ionjet	gunship_imperial_engine_s01:engine_on1
eng_koensayr_elite	gunship_imperial_engine_s01:engine_on1
eng_koensayr_enhanced_dual_small_ionjet	gunship_imperial_engine_s01:engine_on1
eng_koensayr_heavy_ionjet	gunship_imperial_engine_s01:engine_on1
eng_koensayr_ionjet	gunship_imperial_engine_s01:engine_on1
eng_koensayr_small_ionjet	gunship_imperial_engine_s01:engine_on1
eng_koensayr_tuned_small_ionjet	gunship_imperial_engine_s01:engine_on1
eng_kongar_defender	gunship_imperial_engine_s01:engine_on1
eng_kse_a2x	gunship_imperial_engine_s01:engine_on1
eng_kse_a5x	gunship_imperial_engine_s01:engine_on1
eng_kse_a7x	gunship_imperial_engine_s01:engine_on1
eng_kse_a8x	gunship_imperial_engine_s01:engine_on1
eng_kse_advanced	gunship_imperial_engine_s01:engine_on1
eng_kse_elite	gunship_imperial_engine_s01:engine_on1
eng_kse_improved_a2x	gunship_imperial_engine_s01:engine_on1
eng_kuat_a9x	gunship_imperial_engine_s01:engine_on1
eng_kuat_f31	gunship_imperial_engine_s01:engine_on1
eng_kuat_tc40	gunship_imperial_engine_s01:engine_on1
eng_mandal_advanced	gunship_imperial_engine_s01:engine_on1
eng_mandal_elite	gunship_imperial_engine_s01:engine_on1
eng_mandal_enhanced_heavy	gunship_imperial_engine_s01:engine_on1
eng_mandal_firestorm	gunship_imperial_engine_s01:engine_on1
eng_mandal_firestorm_2	gunship_imperial_engine_s01:engine_on1
eng_mandal_heavy	gunship_imperial_engine_s01:engine_on1
eng_mandal_x37_vandal	gunship_imperial_engine_s01:engine_on1
eng_mandal_x57_vandal	gunship_imperial_engine_s01:engine_on1
eng_mission_reward_imperial_cygnus_megadrive	gunship_imperial_engine_s01:engine_on1
eng_mission_reward_neutral_haor_chall_military	gunship_imperial_engine_s01:engine_on1
eng_mission_reward_neutral_mandal_inferno	gunship_imperial_engine_s01:engine_on1
eng_mission_reward_rebel_incom_military	gunship_imperial_engine_s01:engine_on1
eng_mk1	gunship_imperial_engine_s01:engine_on1
eng_mk2	gunship_imperial_engine_s01:engine_on1
eng_mk3	gunship_imperial_engine_s01:engine_on1
eng_mk4	gunship_imperial_engine_s01:engine_on1
eng_mk5	gunship_imperial_engine_s01:engine_on1
eng_moncal_charged_standard	gunship_imperial_engine_s01:engine_on1
eng_moncal_enhanced_light	gunship_imperial_engine_s01:engine_on1
eng_moncal_heavy	gunship_imperial_engine_s01:engine_on1
eng_moncal_ifs32	gunship_imperial_engine_s01:engine_on1
eng_moncal_ifs64	gunship_imperial_engine_s01:engine_on1
eng_moncal_improved_heavy	gunship_imperial_engine_s01:engine_on1
eng_moncal_light	gunship_imperial_engine_s01:engine_on1
eng_moncal_standard	gunship_imperial_engine_s01:engine_on1
eng_novaldex_advanced	gunship_imperial_engine_s01:engine_on1
eng_novaldex_eventhorizon	gunship_imperial_engine_s01:engine_on1
eng_novaldex_light_eventhorizon	gunship_imperial_engine_s01:engine_on1
eng_novaldex_singularity	gunship_imperial_engine_s01:engine_on1
eng_novaldex_x12	gunship_imperial_engine_s01:engine_on1
eng_novaldex_x6	gunship_imperial_engine_s01:engine_on1
eng_novaldex_x7	gunship_imperial_engine_s01:engine_on1
eng_novaldex_x9	gunship_imperial_engine_s01:engine_on1
eng_nubian_221	gunship_imperial_engine_s01:engine_on1
eng_nubian_221_racing_mod	gunship_imperial_engine_s01:engine_on1
eng_prototype	gunship_imperial_engine_s01:engine_on1
eng_qualdex_a10	gunship_imperial_engine_s01:engine_on1
eng_qualdex_a13	gunship_imperial_engine_s01:engine_on1
eng_qualdex_advanced	gunship_imperial_engine_s01:engine_on1
eng_qualdex_b10	gunship_imperial_engine_s01:engine_on1
eng_qualdex_elite	gunship_imperial_engine_s01:engine_on1
eng_qualdex_igt	gunship_imperial_engine_s01:engine_on1
eng_qualdex_kyromaster	gunship_imperial_engine_s01:engine_on1
eng_qualdex_small_kyromaster	gunship_imperial_engine_s01:engine_on1
eng_quantum_ion_drive	gunship_imperial_engine_s01:engine_on1
eng_rendili_demon_mk1	gunship_imperial_engine_s01:engine_on1
eng_rendili_elite	gunship_imperial_engine_s01:engine_on1
eng_rss_advanced	gunship_imperial_engine_s01:engine_on1
eng_rss_elite	gunship_imperial_engine_s01:engine_on1
eng_rss_imperial_skyrunner	gunship_imperial_engine_s01:engine_on1
eng_rss_imperial_skyrunner_2	gunship_imperial_engine_s01:engine_on1
eng_rss_imperial_skyrunner_3	gunship_imperial_engine_s01:engine_on1
eng_rss_imperial_skyrunner_4	gunship_imperial_engine_s01:engine_on1
eng_sds_imperial_1	gunship_imperial_engine_s01:engine_on1
eng_sds_imperial_2	gunship_imperial_engine_s01:engine_on1
eng_sds_limited_imperial_1	gunship_imperial_engine_s01:engine_on1
eng_seinar_ps56	gunship_imperial_engine_s01:engine_on1
eng_sfs_advanced	gunship_imperial_engine_s01:engine_on1
eng_sfs_elite	gunship_imperial_engine_s01:engine_on1
eng_sfs_imperial_1	gunship_imperial_engine_s01:engine_on1
eng_sfs_imperial_2	gunship_imperial_engine_s01:engine_on1
eng_sfs_imperial_3	gunship_imperial_engine_s01:engine_on1
eng_sfs_imperial_4	gunship_imperial_engine_s01:engine_on1
eng_sfs_imperial_5	gunship_imperial_engine_s01:engine_on1
eng_sfs_modified_imperial_3	gunship_imperial_engine_s01:engine_on1
eng_sfs_performance_imperial_1	gunship_imperial_engine_s01:engine_on1
eng_sfs_tuned_imperial_2	gunship_imperial_engine_s01:engine_on1
eng_sorosuub_l_337_ion_engine	gunship_imperial_engine_s01:engine_on1
eng_sorosuub_tuned_l_337_ion_engine	gunship_imperial_engine_s01:engine_on1
eng_sorosuub_u83r_ion_drive	gunship_imperial_engine_s01:engine_on1
eng_subpro_light_engines	gunship_imperial_engine_s01:engine_on1
eng_surronian_a2	gunship_imperial_engine_s01:engine_on1
eng_surronian_a25	gunship_imperial_engine_s01:engine_on1
eng_ubrikkian_n2	gunship_imperial_engine_s01:engine_on1
eng_kessel_imperial_rendili_hyperion_drive	gunship_imperial_engine_s01:engine_on1
eng_kessel_imperial_sds_special_forces	gunship_imperial_engine_s01:engine_on1
eng_kessel_imperial_sfs_special_forces	gunship_imperial_engine_s01:engine_on1
eng_kessel_rebel_incom_t11_elite	gunship_imperial_engine_s01:engine_on1
eng_kessel_rebel_novaldex_blackhole_elite	gunship_imperial_engine_s01:engine_on1
eng_kessel_rebel_novaldex_grb1138	gunship_imperial_engine_s01:engine_on1
eng_reward_kuat_elite	gunship_imperial_engine_s01:engine_on1
eng_nova_01	gunship_imperial_engine_s01:engine_on1
eng_orion_01	gunship_imperial_engine_s01:engine_on1
collection_reward_engine_01_mk1	gunship_imperial_engine_s01:engine_on1
collection_reward_engine_01_mk2	gunship_imperial_engine_s01:engine_on1
collection_reward_engine_01_mk3	gunship_imperial_engine_s01:engine_on1
collection_reward_engine_01_mk4	gunship_imperial_engine_s01:engine_on1
collection_reward_engine_01_mk5	gunship_imperial_engine_s01:engine_on1
eng_t86_shooting_star	gunship_imperial_engine_s01:engine_on1									
eng_kuat_m24	gunship_imperial_engine_s01:engine_on1									
wpn_advanced_blaster			gunship_imperial_weapon_s01:pilotmuzzle1	gunship_imperial_weapon_s01:pilotmuzzle2	imperial_gunboat_turret_ball:turret_ball1	imperial_gunboat_turret_ball:turret_ball2	imperial_gunboat_turret_ball:turret_ball3	imperial_gunboat_turretbase_wing:turretyaw1	imperial_gunboat_turretbase_wing:turretyaw2	imperial_gunboat_turretbase_nose:turretyaw_nose1
wpn_advanced_blaster_green			gunship_imperial_weapon_s01:pilotmuzzle1	gunship_imperial_weapon_s01:pilotmuzzle2	imperial_gunboat_turret_ball:turret_ball1	imperial_gunboat_turret_ball:turret_ball2	imperial_gunboat_turret_ball:turret_ball3	imperial_gunboat_turretbase_wing:turretyaw1	imperial_gunboat_turretbase_wing:turretyaw2	imperial_gunboat_turretbase_nose:turretyaw_nose1
wpn_advanced_disruptor			gunship_imperial_weapon_s01:pilotmuzzle1	gunship_imperial_weapon_s01:pilotmuzzle2	imperial_gunboat_turret_ball:turret_ball1	imperial_gunboat_turret_ball:turret_ball2	imperial_gunboat_turret_ball:turret_ball3	imperial_gunboat_turretbase_wing:turretyaw1	imperial_gunboat_turretbase_wing:turretyaw2	imperial_gunboat_turretbase_nose:turretyaw_nose1
wpn_advanced_ioncannon			gunship_imperial_weapon_s01:pilotmuzzle1	gunship_imperial_weapon_s01:pilotmuzzle2	imperial_gunboat_turret_ball:turret_ball1	imperial_gunboat_turret_ball:turret_ball2	imperial_gunboat_turret_ball:turret_ball3	imperial_gunboat_turretbase_wing:turretyaw1	imperial_gunboat_turretbase_wing:turretyaw2	imperial_gunboat_turretbase_nose:turretyaw_nose1
wpn_armek_advanced			gunship_imperial_weapon_s01:pilotmuzzle1	gunship_imperial_weapon_s01:pilotmuzzle2	imperial_gunboat_turret_ball:turret_ball1	imperial_gunboat_turret_ball:turret_ball2	imperial_gunboat_turret_ball:turret_ball3	imperial_gunboat_turretbase_wing:turretyaw1	imperial_gunboat_turretbase_wing:turretyaw2	imperial_gunboat_turretbase_nose:turretyaw_nose1
wpn_armek_elite			gunship_imperial_weapon_s01:pilotmuzzle1	gunship_imperial_weapon_s01:pilotmuzzle2	imperial_gunboat_turret_ball:turret_ball1	imperial_gunboat_turret_ball:turret_ball2	imperial_gunboat_turret_ball:turret_ball3	imperial_gunboat_turretbase_wing:turretyaw1	imperial_gunboat_turretbase_wing:turretyaw2	imperial_gunboat_turretbase_nose:turretyaw_nose1
wpn_armek_sw4			gunship_imperial_weapon_s01:pilotmuzzle1	gunship_imperial_weapon_s01:pilotmuzzle2	imperial_gunboat_turret_ball:turret_ball1	imperial_gunboat_turret_ball:turret_ball2	imperial_gunboat_turret_ball:turret_ball3	imperial_gunboat_turretbase_wing:turretyaw1	imperial_gunboat_turretbase_wing:turretyaw2	imperial_gunboat_turretbase_nose:turretyaw_nose1
wpn_armek_sw6			gunship_imperial_weapon_s01:pilotmuzzle1	gunship_imperial_weapon_s01:pilotmuzzle2	imperial_gunboat_turret_ball:turret_ball1	imperial_gunboat_turret_ball:turret_ball2	imperial_gunboat_turret_ball:turret_ball3	imperial_gunboat_turretbase_wing:turretyaw1	imperial_gunboat_turretbase_wing:turretyaw2	imperial_gunboat_turretbase_nose:turretyaw_nose1
wpn_armek_sw7			gunship_imperial_weapon_s01:pilotmuzzle1	gunship_imperial_weapon_s01:pilotmuzzle2	imperial_gunboat_turret_ball:turret_ball1	imperial_gunboat_turret_ball:turret_ball2	imperial_gunboat_turret_ball:turret_ball3	imperial_gunboat_turretbase_wing:turretyaw1	imperial_gunboat_turretbase_wing:turretyaw2	imperial_gunboat_turretbase_nose:turretyaw_nose1
wpn_armek_sw8			gunship_imperial_weapon_s01:pilotmuzzle1	gunship_imperial_weapon_s01:pilotmuzzle2	imperial_gunboat_turret_ball:turret_ball1	imperial_gunboat_turret_ball:turret_ball2	imperial_gunboat_turret_ball:turret_ball3	imperial_gunboat_turretbase_wing:turretyaw1	imperial_gunboat_turretbase_wing:turretyaw2	imperial_gunboat_turretbase_nose:turretyaw_nose1
wpn_awing_blaster			gunship_imperial_weapon_s01:pilotmuzzle1	gunship_imperial_weapon_s01:pilotmuzzle2	imperial_gunboat_turret_ball:turret_ball1	imperial_gunboat_turret_ball:turret_ball2	imperial_gunboat_turret_ball:turret_ball3	imperial_gunboat_turretbase_wing:turretyaw1	imperial_gunboat_turretbase_wing:turretyaw2	imperial_gunboat_turretbase_nose:turretyaw_nose1
wpn_borstel_rg9			gunship_imperial_weapon_s01:pilotmuzzle1	gunship_imperial_weapon_s01:pilotmuzzle2	imperial_gunboat_turret_ball:turret_ball1	imperial_gunboat_turret_ball:turret_ball2	imperial_gunboat_turret_ball:turret_ball3	imperial_gunboat_turretbase_wing:turretyaw1	imperial_gunboat_turretbase_wing:turretyaw2	imperial_gunboat_turretbase_nose:turretyaw_nose1
wpn_bwing_blaster			gunship_imperial_weapon_s01:pilotmuzzle1	gunship_imperial_weapon_s01:pilotmuzzle2	imperial_gunboat_turret_ball:turret_ball1	imperial_gunboat_turret_ball:turret_ball2	imperial_gunboat_turret_ball:turret_ball3	imperial_gunboat_turretbase_wing:turretyaw1	imperial_gunboat_turretbase_wing:turretyaw2	imperial_gunboat_turretbase_nose:turretyaw_nose1
wpn_corellian_1d			gunship_imperial_weapon_s01:pilotmuzzle1	gunship_imperial_weapon_s01:pilotmuzzle2	imperial_gunboat_turret_ball:turret_ball1	imperial_gunboat_turret_ball:turret_ball2	imperial_gunboat_turret_ball:turret_ball3	imperial_gunboat_turretbase_wing:turretyaw1	imperial_gunboat_turretbase_wing:turretyaw2	imperial_gunboat_turretbase_nose:turretyaw_nose1
wpn_corellian_ag1g_laser			gunship_imperial_weapon_s01:pilotmuzzle1	gunship_imperial_weapon_s01:pilotmuzzle2	imperial_gunboat_turret_ball:turret_ball1	imperial_gunboat_turret_ball:turret_ball2	imperial_gunboat_turret_ball:turret_ball3	imperial_gunboat_turretbase_wing:turretyaw1	imperial_gunboat_turretbase_wing:turretyaw2	imperial_gunboat_turretbase_nose:turretyaw_nose1
wpn_corellian_ag2g_quad_laser			gunship_imperial_weapon_s01:pilotmuzzle1	gunship_imperial_weapon_s01:pilotmuzzle2	imperial_gunboat_turret_ball:turret_ball1	imperial_gunboat_turret_ball:turret_ball2	imperial_gunboat_turret_ball:turret_ball3	imperial_gunboat_turretbase_wing:turretyaw1	imperial_gunboat_turretbase_wing:turretyaw2	imperial_gunboat_turretbase_nose:turretyaw_nose1
wpn_corellian_cruiser_grade_blaster_mk1			gunship_imperial_weapon_s01:pilotmuzzle1	gunship_imperial_weapon_s01:pilotmuzzle2	imperial_gunboat_turret_ball:turret_ball1	imperial_gunboat_turret_ball:turret_ball2	imperial_gunboat_turret_ball:turret_ball3	imperial_gunboat_turretbase_wing:turretyaw1	imperial_gunboat_turretbase_wing:turretyaw2	imperial_gunboat_turretbase_nose:turretyaw_nose1
wpn_corellian_heavy_gauss			gunship_imperial_weapon_s01:pilotmuzzle1	gunship_imperial_weapon_s01:pilotmuzzle2	imperial_gunboat_turret_ball:turret_ball1	imperial_gunboat_turret_ball:turret_ball2	imperial_gunboat_turret_ball:turret_ball3	imperial_gunboat_turretbase_wing:turretyaw1	imperial_gunboat_turretbase_wing:turretyaw2	imperial_gunboat_turretbase_nose:turretyaw_nose1
wpn_crafted_incom_disruptor			gunship_imperial_weapon_s01:pilotmuzzle1	gunship_imperial_weapon_s01:pilotmuzzle2	imperial_gunboat_turret_ball:turret_ball1	imperial_gunboat_turret_ball:turret_ball2	imperial_gunboat_turret_ball:turret_ball3	imperial_gunboat_turretbase_wing:turretyaw1	imperial_gunboat_turretbase_wing:turretyaw2	imperial_gunboat_turretbase_nose:turretyaw_nose1
wpn_crafted_slayn_ioncannon			gunship_imperial_weapon_s01:pilotmuzzle1	gunship_imperial_weapon_s01:pilotmuzzle2	imperial_gunboat_turret_ball:turret_ball1	imperial_gunboat_turret_ball:turret_ball2	imperial_gunboat_turret_ball:turret_ball3	imperial_gunboat_turretbase_wing:turretyaw1	imperial_gunboat_turretbase_wing:turretyaw2	imperial_gunboat_turretbase_nose:turretyaw_nose1
wpn_crafted_subpro_tripleblaster			gunship_imperial_weapon_s01:pilotmuzzle1	gunship_imperial_weapon_s01:pilotmuzzle2	imperial_gunboat_turret_ball:turret_ball1	imperial_gunboat_turret_ball:turret_ball2	imperial_gunboat_turret_ball:turret_ball3	imperial_gunboat_turretbase_wing:turretyaw1	imperial_gunboat_turretbase_wing:turretyaw2	imperial_gunboat_turretbase_nose:turretyaw_nose1
wpn_crafted_tractor_beam			gunship_imperial_weapon_s01:pilotmuzzle1	gunship_imperial_weapon_s01:pilotmuzzle2	imperial_gunboat_turret_ball:turret_ball1	imperial_gunboat_turret_ball:turret_ball2	imperial_gunboat_turret_ball:turret_ball3	imperial_gunboat_turretbase_wing:turretyaw1	imperial_gunboat_turretbase_wing:turretyaw2	imperial_gunboat_turretbase_nose:turretyaw_nose1
wpn_cygnus_destroyer_mk1			gunship_imperial_weapon_s01:pilotmuzzle1	gunship_imperial_weapon_s01:pilotmuzzle2	imperial_gunboat_turret_ball:turret_ball1	imperial_gunboat_turret_ball:turret_ball2	imperial_gunboat_turret_ball:turret_ball3	imperial_gunboat_turretbase_wing:turretyaw1	imperial_gunboat_turretbase_wing:turretyaw2	imperial_gunboat_turretbase_nose:turretyaw_nose1
wpn_cygnus_destroyer_mk2			gunship_imperial_weapon_s01:pilotmuzzle1	gunship_imperial_weapon_s01:pilotmuzzle2	imperial_gunboat_turret_ball:turret_ball1	imperial_gunboat_turret_ball:turret_ball2	imperial_gunboat_turret_ball:turret_ball3	imperial_gunboat_turretbase_wing:turretyaw1	imperial_gunboat_turretbase_wing:turretyaw2	imperial_gunboat_turretbase_nose:turretyaw_nose1
wpn_cygnus_elite			gunship_imperial_weapon_s01:pilotmuzzle1	gunship_imperial_weapon_s01:pilotmuzzle2	imperial_gunboat_turret_ball:turret_ball1	imperial_gunboat_turret_ball:turret_ball2	imperial_gunboat_turret_ball:turret_ball3	imperial_gunboat_turretbase_wing:turretyaw1	imperial_gunboat_turretbase_wing:turretyaw2	imperial_gunboat_turretbase_nose:turretyaw_nose1
wpn_cygnus_eradicator_1			gunship_imperial_weapon_s01:pilotmuzzle1	gunship_imperial_weapon_s01:pilotmuzzle2	imperial_gunboat_turret_ball:turret_ball1	imperial_gunboat_turret_ball:turret_ball2	imperial_gunboat_turret_ball:turret_ball3	imperial_gunboat_turretbase_wing:turretyaw1	imperial_gunboat_turretbase_wing:turretyaw2	imperial_gunboat_turretbase_nose:turretyaw_nose1
wpn_elite_gauss			gunship_imperial_weapon_s01:pilotmuzzle1	gunship_imperial_weapon_s01:pilotmuzzle2	imperial_gunboat_turret_ball:turret_ball1	imperial_gunboat_turret_ball:turret_ball2	imperial_gunboat_turret_ball:turret_ball3	imperial_gunboat_turretbase_wing:turretyaw1	imperial_gunboat_turretbase_wing:turretyaw2	imperial_gunboat_turretbase_nose:turretyaw_nose1
wpn_elite_null_bolt			gunship_imperial_weapon_s01:pilotmuzzle1	gunship_imperial_weapon_s01:pilotmuzzle2	imperial_gunboat_turret_ball:turret_ball1	imperial_gunboat_turret_ball:turret_ball2	imperial_gunboat_turret_ball:turret_ball3	imperial_gunboat_turretbase_wing:turretyaw1	imperial_gunboat_turretbase_wing:turretyaw2	imperial_gunboat_turretbase_nose:turretyaw_nose1
wpn_elite_railgun			gunship_imperial_weapon_s01:pilotmuzzle1	gunship_imperial_weapon_s01:pilotmuzzle2	imperial_gunboat_turret_ball:turret_ball1	imperial_gunboat_turret_ball:turret_ball2	imperial_gunboat_turret_ball:turret_ball3	imperial_gunboat_turretbase_wing:turretyaw1	imperial_gunboat_turretbase_wing:turretyaw2	imperial_gunboat_turretbase_nose:turretyaw_nose1
wpn_experimental_blaster			gunship_imperial_weapon_s01:pilotmuzzle1	gunship_imperial_weapon_s01:pilotmuzzle2	imperial_gunboat_turret_ball:turret_ball1	imperial_gunboat_turret_ball:turret_ball2	imperial_gunboat_turret_ball:turret_ball3	imperial_gunboat_turretbase_wing:turretyaw1	imperial_gunboat_turretbase_wing:turretyaw2	imperial_gunboat_turretbase_nose:turretyaw_nose1
wpn_experimental_blaster_green			gunship_imperial_weapon_s01:pilotmuzzle1	gunship_imperial_weapon_s01:pilotmuzzle2	imperial_gunboat_turret_ball:turret_ball1	imperial_gunboat_turret_ball:turret_ball2	imperial_gunboat_turret_ball:turret_ball3	imperial_gunboat_turretbase_wing:turretyaw1	imperial_gunboat_turretbase_wing:turretyaw2	imperial_gunboat_turretbase_nose:turretyaw_nose1
wpn_experimental_disruptor			gunship_imperial_weapon_s01:pilotmuzzle1	gunship_imperial_weapon_s01:pilotmuzzle2	imperial_gunboat_turret_ball:turret_ball1	imperial_gunboat_turret_ball:turret_ball2	imperial_gunboat_turret_ball:turret_ball3	imperial_gunboat_turretbase_wing:turretyaw1	imperial_gunboat_turretbase_wing:turretyaw2	imperial_gunboat_turretbase_nose:turretyaw_nose1
wpn_experimental_ioncannon			gunship_imperial_weapon_s01:pilotmuzzle1	gunship_imperial_weapon_s01:pilotmuzzle2	imperial_gunboat_turret_ball:turret_ball1	imperial_gunboat_turret_ball:turret_ball2	imperial_gunboat_turret_ball:turret_ball3	imperial_gunboat_turretbase_wing:turretyaw1	imperial_gunboat_turretbase_wing:turretyaw2	imperial_gunboat_turretbase_nose:turretyaw_nose1
wpn_fastspray_2000_disruptor			gunship_imperial_weapon_s01:pilotmuzzle1	gunship_imperial_weapon_s01:pilotmuzzle2	imperial_gunboat_turret_ball:turret_ball1	imperial_gunboat_turret_ball:turret_ball2	imperial_gunboat_turret_ball:turret_ball3	imperial_gunboat_turretbase_wing:turretyaw1	imperial_gunboat_turretbase_wing:turretyaw2	imperial_gunboat_turretbase_nose:turretyaw_nose1
wpn_freitek_cannoneer_mk1			gunship_imperial_weapon_s01:pilotmuzzle1	gunship_imperial_weapon_s01:pilotmuzzle2	imperial_gunboat_turret_ball:turret_ball1	imperial_gunboat_turret_ball:turret_ball2	imperial_gunboat_turret_ball:turret_ball3	imperial_gunboat_turretbase_wing:turretyaw1	imperial_gunboat_turretbase_wing:turretyaw2	imperial_gunboat_turretbase_nose:turretyaw_nose1
wpn_gyrhil_auto_blaster			gunship_imperial_weapon_s01:pilotmuzzle1	gunship_imperial_weapon_s01:pilotmuzzle2	imperial_gunboat_turret_ball:turret_ball1	imperial_gunboat_turret_ball:turret_ball2	imperial_gunboat_turret_ball:turret_ball3	imperial_gunboat_turretbase_wing:turretyaw1	imperial_gunboat_turretbase_wing:turretyaw2	imperial_gunboat_turretbase_nose:turretyaw_nose1
wpn_gyrhil_r9x			gunship_imperial_weapon_s01:pilotmuzzle1	gunship_imperial_weapon_s01:pilotmuzzle2	imperial_gunboat_turret_ball:turret_ball1	imperial_gunboat_turret_ball:turret_ball2	imperial_gunboat_turret_ball:turret_ball3	imperial_gunboat_turretbase_wing:turretyaw1	imperial_gunboat_turretbase_wing:turretyaw2	imperial_gunboat_turretbase_nose:turretyaw_nose1
wpn_haor_chall_speedblaster			gunship_imperial_weapon_s01:pilotmuzzle1	gunship_imperial_weapon_s01:pilotmuzzle2	imperial_gunboat_turret_ball:turret_ball1	imperial_gunboat_turret_ball:turret_ball2	imperial_gunboat_turret_ball:turret_ball3	imperial_gunboat_turretbase_wing:turretyaw1	imperial_gunboat_turretbase_wing:turretyaw2	imperial_gunboat_turretbase_nose:turretyaw_nose1
wpn_heavy_blaster			gunship_imperial_weapon_s01:pilotmuzzle1	gunship_imperial_weapon_s01:pilotmuzzle2	imperial_gunboat_turret_ball:turret_ball1	imperial_gunboat_turret_ball:turret_ball2	imperial_gunboat_turret_ball:turret_ball3	imperial_gunboat_turretbase_wing:turretyaw1	imperial_gunboat_turretbase_wing:turretyaw2	imperial_gunboat_turretbase_nose:turretyaw_nose1
wpn_heavy_blaster_green			gunship_imperial_weapon_s01:pilotmuzzle1	gunship_imperial_weapon_s01:pilotmuzzle2	imperial_gunboat_turret_ball:turret_ball1	imperial_gunboat_turret_ball:turret_ball2	imperial_gunboat_turret_ball:turret_ball3	imperial_gunboat_turretbase_wing:turretyaw1	imperial_gunboat_turretbase_wing:turretyaw2	imperial_gunboat_turretbase_nose:turretyaw_nose1
wpn_heavy_disruptor			gunship_imperial_weapon_s01:pilotmuzzle1	gunship_imperial_weapon_s01:pilotmuzzle2	imperial_gunboat_turret_ball:turret_ball1	imperial_gunboat_turret_ball:turret_ball2	imperial_gunboat_turret_ball:turret_ball3	imperial_gunboat_turretbase_wing:turretyaw1	imperial_gunboat_turretbase_wing:turretyaw2	imperial_gunboat_turretbase_nose:turretyaw_nose1
wpn_heavy_ioncannon			gunship_imperial_weapon_s01:pilotmuzzle1	gunship_imperial_weapon_s01:pilotmuzzle2	imperial_gunboat_turret_ball:turret_ball1	imperial_gunboat_turret_ball:turret_ball2	imperial_gunboat_turret_ball:turret_ball3	imperial_gunboat_turretbase_wing:turretyaw1	imperial_gunboat_turretbase_wing:turretyaw2	imperial_gunboat_turretbase_nose:turretyaw_nose1
wpn_hk_modified_scorcher_elite			gunship_imperial_weapon_s01:pilotmuzzle1	gunship_imperial_weapon_s01:pilotmuzzle2	imperial_gunboat_turret_ball:turret_ball1	imperial_gunboat_turret_ball:turret_ball2	imperial_gunboat_turret_ball:turret_ball3	imperial_gunboat_turretbase_wing:turretyaw1	imperial_gunboat_turretbase_wing:turretyaw2	imperial_gunboat_turretbase_nose:turretyaw_nose1
wpn_hk_scorcher			gunship_imperial_weapon_s01:pilotmuzzle1	gunship_imperial_weapon_s01:pilotmuzzle2	imperial_gunboat_turret_ball:turret_ball1	imperial_gunboat_turret_ball:turret_ball2	imperial_gunboat_turret_ball:turret_ball3	imperial_gunboat_turretbase_wing:turretyaw1	imperial_gunboat_turretbase_wing:turretyaw2	imperial_gunboat_turretbase_nose:turretyaw_nose1
wpn_hk_scorcher_2			gunship_imperial_weapon_s01:pilotmuzzle1	gunship_imperial_weapon_s01:pilotmuzzle2	imperial_gunboat_turret_ball:turret_ball1	imperial_gunboat_turret_ball:turret_ball2	imperial_gunboat_turret_ball:turret_ball3	imperial_gunboat_turretbase_wing:turretyaw1	imperial_gunboat_turretbase_wing:turretyaw2	imperial_gunboat_turretbase_nose:turretyaw_nose1
wpn_hk_scorcher_3			gunship_imperial_weapon_s01:pilotmuzzle1	gunship_imperial_weapon_s01:pilotmuzzle2	imperial_gunboat_turret_ball:turret_ball1	imperial_gunboat_turret_ball:turret_ball2	imperial_gunboat_turret_ball:turret_ball3	imperial_gunboat_turretbase_wing:turretyaw1	imperial_gunboat_turretbase_wing:turretyaw2	imperial_gunboat_turretbase_nose:turretyaw_nose1
wpn_hk_scorcher_advanced			gunship_imperial_weapon_s01:pilotmuzzle1	gunship_imperial_weapon_s01:pilotmuzzle2	imperial_gunboat_turret_ball:turret_ball1	imperial_gunboat_turret_ball:turret_ball2	imperial_gunboat_turret_ball:turret_ball3	imperial_gunboat_turretbase_wing:turretyaw1	imperial_gunboat_turretbase_wing:turretyaw2	imperial_gunboat_turretbase_nose:turretyaw_nose1
wpn_hk_scorcher_elite			gunship_imperial_weapon_s01:pilotmuzzle1	gunship_imperial_weapon_s01:pilotmuzzle2	imperial_gunboat_turret_ball:turret_ball1	imperial_gunboat_turret_ball:turret_ball2	imperial_gunboat_turret_ball:turret_ball3	imperial_gunboat_turretbase_wing:turretyaw1	imperial_gunboat_turretbase_wing:turretyaw2	imperial_gunboat_turretbase_nose:turretyaw_nose1
wpn_hk_scorcher_heavy			gunship_imperial_weapon_s01:pilotmuzzle1	gunship_imperial_weapon_s01:pilotmuzzle2	imperial_gunboat_turret_ball:turret_ball1	imperial_gunboat_turret_ball:turret_ball2	imperial_gunboat_turret_ball:turret_ball3	imperial_gunboat_turretbase_wing:turretyaw1	imperial_gunboat_turretbase_wing:turretyaw2	imperial_gunboat_turretbase_nose:turretyaw_nose1
wpn_hoersch_railgun			gunship_imperial_weapon_s01:pilotmuzzle1	gunship_imperial_weapon_s01:pilotmuzzle2	imperial_gunboat_turret_ball:turret_ball1	imperial_gunboat_turret_ball:turret_ball2	imperial_gunboat_turret_ball:turret_ball3	imperial_gunboat_turretbase_wing:turretyaw1	imperial_gunboat_turretbase_wing:turretyaw2	imperial_gunboat_turretbase_nose:turretyaw_nose1
wpn_incom_advanced_blaster			gunship_imperial_weapon_s01:pilotmuzzle1	gunship_imperial_weapon_s01:pilotmuzzle2	imperial_gunboat_turret_ball:turret_ball1	imperial_gunboat_turret_ball:turret_ball2	imperial_gunboat_turret_ball:turret_ball3	imperial_gunboat_turretbase_wing:turretyaw1	imperial_gunboat_turretbase_wing:turretyaw2	imperial_gunboat_turretbase_nose:turretyaw_nose1
wpn_incom_blaster			gunship_imperial_weapon_s01:pilotmuzzle1	gunship_imperial_weapon_s01:pilotmuzzle2	imperial_gunboat_turret_ball:turret_ball1	imperial_gunboat_turret_ball:turret_ball2	imperial_gunboat_turret_ball:turret_ball3	imperial_gunboat_turretbase_wing:turretyaw1	imperial_gunboat_turretbase_wing:turretyaw2	imperial_gunboat_turretbase_nose:turretyaw_nose1
wpn_incom_disruptor			gunship_imperial_weapon_s01:pilotmuzzle1	gunship_imperial_weapon_s01:pilotmuzzle2	imperial_gunboat_turret_ball:turret_ball1	imperial_gunboat_turret_ball:turret_ball2	imperial_gunboat_turret_ball:turret_ball3	imperial_gunboat_turretbase_wing:turretyaw1	imperial_gunboat_turretbase_wing:turretyaw2	imperial_gunboat_turretbase_nose:turretyaw_nose1
wpn_incom_elite_quad_blaster			gunship_imperial_weapon_s01:pilotmuzzle1	gunship_imperial_weapon_s01:pilotmuzzle2	imperial_gunboat_turret_ball:turret_ball1	imperial_gunboat_turret_ball:turret_ball2	imperial_gunboat_turret_ball:turret_ball3	imperial_gunboat_turretbase_wing:turretyaw1	imperial_gunboat_turretbase_wing:turretyaw2	imperial_gunboat_turretbase_nose:turretyaw_nose1
wpn_incom_heavy_blaster			gunship_imperial_weapon_s01:pilotmuzzle1	gunship_imperial_weapon_s01:pilotmuzzle2	imperial_gunboat_turret_ball:turret_ball1	imperial_gunboat_turret_ball:turret_ball2	imperial_gunboat_turret_ball:turret_ball3	imperial_gunboat_turretbase_wing:turretyaw1	imperial_gunboat_turretbase_wing:turretyaw2	imperial_gunboat_turretbase_nose:turretyaw_nose1
wpn_incom_heavy_quad_blaster			gunship_imperial_weapon_s01:pilotmuzzle1	gunship_imperial_weapon_s01:pilotmuzzle2	imperial_gunboat_turret_ball:turret_ball1	imperial_gunboat_turret_ball:turret_ball2	imperial_gunboat_turret_ball:turret_ball3	imperial_gunboat_turretbase_wing:turretyaw1	imperial_gunboat_turretbase_wing:turretyaw2	imperial_gunboat_turretbase_nose:turretyaw_nose1
wpn_incom_light_blaster			gunship_imperial_weapon_s01:pilotmuzzle1	gunship_imperial_weapon_s01:pilotmuzzle2	imperial_gunboat_turret_ball:turret_ball1	imperial_gunboat_turret_ball:turret_ball2	imperial_gunboat_turret_ball:turret_ball3	imperial_gunboat_turretbase_wing:turretyaw1	imperial_gunboat_turretbase_wing:turretyaw2	imperial_gunboat_turretbase_nose:turretyaw_nose1
wpn_incom_quad_blaster			gunship_imperial_weapon_s01:pilotmuzzle1	gunship_imperial_weapon_s01:pilotmuzzle2	imperial_gunboat_turret_ball:turret_ball1	imperial_gunboat_turret_ball:turret_ball2	imperial_gunboat_turret_ball:turret_ball3	imperial_gunboat_turretbase_wing:turretyaw1	imperial_gunboat_turretbase_wing:turretyaw2	imperial_gunboat_turretbase_nose:turretyaw_nose1
wpn_incom_shredder			gunship_imperial_weapon_s01:pilotmuzzle1	gunship_imperial_weapon_s01:pilotmuzzle2	imperial_gunboat_turret_ball:turret_ball1	imperial_gunboat_turret_ball:turret_ball2	imperial_gunboat_turret_ball:turret_ball3	imperial_gunboat_turretbase_wing:turretyaw1	imperial_gunboat_turretbase_wing:turretyaw2	imperial_gunboat_turretbase_nose:turretyaw_nose1
wpn_incom_tt13			gunship_imperial_weapon_s01:pilotmuzzle1	gunship_imperial_weapon_s01:pilotmuzzle2	imperial_gunboat_turret_ball:turret_ball1	imperial_gunboat_turret_ball:turret_ball2	imperial_gunboat_turret_ball:turret_ball3	imperial_gunboat_turretbase_wing:turretyaw1	imperial_gunboat_turretbase_wing:turretyaw2	imperial_gunboat_turretbase_nose:turretyaw_nose1
wpn_incom_tt8			gunship_imperial_weapon_s01:pilotmuzzle1	gunship_imperial_weapon_s01:pilotmuzzle2	imperial_gunboat_turret_ball:turret_ball1	imperial_gunboat_turret_ball:turret_ball2	imperial_gunboat_turret_ball:turret_ball3	imperial_gunboat_turretbase_wing:turretyaw1	imperial_gunboat_turretbase_wing:turretyaw2	imperial_gunboat_turretbase_nose:turretyaw_nose1
wpn_ionic_pulse_weapon			gunship_imperial_weapon_s01:pilotmuzzle1	gunship_imperial_weapon_s01:pilotmuzzle2	imperial_gunboat_turret_ball:turret_ball1	imperial_gunboat_turret_ball:turret_ball2	imperial_gunboat_turret_ball:turret_ball3	imperial_gunboat_turretbase_wing:turretyaw1	imperial_gunboat_turretbase_wing:turretyaw2	imperial_gunboat_turretbase_nose:turretyaw_nose1
wpn_kdy_pounder_mk1			gunship_imperial_weapon_s01:pilotmuzzle1	gunship_imperial_weapon_s01:pilotmuzzle2	imperial_gunboat_turret_ball:turret_ball1	imperial_gunboat_turret_ball:turret_ball2	imperial_gunboat_turret_ball:turret_ball3	imperial_gunboat_turretbase_wing:turretyaw1	imperial_gunboat_turretbase_wing:turretyaw2	imperial_gunboat_turretbase_nose:turretyaw_nose1
wpn_koensayr_deluxe_ion_accelerator			gunship_imperial_weapon_s01:pilotmuzzle1	gunship_imperial_weapon_s01:pilotmuzzle2	imperial_gunboat_turret_ball:turret_ball1	imperial_gunboat_turret_ball:turret_ball2	imperial_gunboat_turret_ball:turret_ball3	imperial_gunboat_turretbase_wing:turretyaw1	imperial_gunboat_turretbase_wing:turretyaw2	imperial_gunboat_turretbase_nose:turretyaw_nose1
wpn_koensayr_ion_accelerator			gunship_imperial_weapon_s01:pilotmuzzle1	gunship_imperial_weapon_s01:pilotmuzzle2	imperial_gunboat_turret_ball:turret_ball1	imperial_gunboat_turret_ball:turret_ball2	imperial_gunboat_turret_ball:turret_ball3	imperial_gunboat_turretbase_wing:turretyaw1	imperial_gunboat_turretbase_wing:turretyaw2	imperial_gunboat_turretbase_nose:turretyaw_nose1
wpn_koensayr_ion_accelerator_2			gunship_imperial_weapon_s01:pilotmuzzle1	gunship_imperial_weapon_s01:pilotmuzzle2	imperial_gunboat_turret_ball:turret_ball1	imperial_gunboat_turret_ball:turret_ball2	imperial_gunboat_turret_ball:turret_ball3	imperial_gunboat_turretbase_wing:turretyaw1	imperial_gunboat_turretbase_wing:turretyaw2	imperial_gunboat_turretbase_nose:turretyaw_nose1
wpn_koensayr_ion_accelerator_3			gunship_imperial_weapon_s01:pilotmuzzle1	gunship_imperial_weapon_s01:pilotmuzzle2	imperial_gunboat_turret_ball:turret_ball1	imperial_gunboat_turret_ball:turret_ball2	imperial_gunboat_turret_ball:turret_ball3	imperial_gunboat_turretbase_wing:turretyaw1	imperial_gunboat_turretbase_wing:turretyaw2	imperial_gunboat_turretbase_nose:turretyaw_nose1
wpn_koensayr_ion_accelerator_advanced			gunship_imperial_weapon_s01:pilotmuzzle1	gunship_imperial_weapon_s01:pilotmuzzle2	imperial_gunboat_turret_ball:turret_ball1	imperial_gunboat_turret_ball:turret_ball2	imperial_gunboat_turret_ball:turret_ball3	imperial_gunboat_turretbase_wing:turretyaw1	imperial_gunboat_turretbase_wing:turretyaw2	imperial_gunboat_turretbase_nose:turretyaw_nose1
wpn_koensayr_light_disruptor			gunship_imperial_weapon_s01:pilotmuzzle1	gunship_imperial_weapon_s01:pilotmuzzle2	imperial_gunboat_turret_ball:turret_ball1	imperial_gunboat_turret_ball:turret_ball2	imperial_gunboat_turret_ball:turret_ball3	imperial_gunboat_turretbase_wing:turretyaw1	imperial_gunboat_turretbase_wing:turretyaw2	imperial_gunboat_turretbase_nose:turretyaw_nose1
wpn_koensayr_tuned_light_disruptor			gunship_imperial_weapon_s01:pilotmuzzle1	gunship_imperial_weapon_s01:pilotmuzzle2	imperial_gunboat_turret_ball:turret_ball1	imperial_gunboat_turret_ball:turret_ball2	imperial_gunboat_turret_ball:turret_ball3	imperial_gunboat_turretbase_wing:turretyaw1	imperial_gunboat_turretbase_wing:turretyaw2	imperial_gunboat_turretbase_nose:turretyaw_nose1
wpn_kse_double_blaster			gunship_imperial_weapon_s01:pilotmuzzle1	gunship_imperial_weapon_s01:pilotmuzzle2	imperial_gunboat_turret_ball:turret_ball1	imperial_gunboat_turret_ball:turret_ball2	imperial_gunboat_turret_ball:turret_ball3	imperial_gunboat_turretbase_wing:turretyaw1	imperial_gunboat_turretbase_wing:turretyaw2	imperial_gunboat_turretbase_nose:turretyaw_nose1
wpn_kse_light_disruptor			gunship_imperial_weapon_s01:pilotmuzzle1	gunship_imperial_weapon_s01:pilotmuzzle2	imperial_gunboat_turret_ball:turret_ball1	imperial_gunboat_turret_ball:turret_ball2	imperial_gunboat_turret_ball:turret_ball3	imperial_gunboat_turretbase_wing:turretyaw1	imperial_gunboat_turretbase_wing:turretyaw2	imperial_gunboat_turretbase_nose:turretyaw_nose1
wpn_light_blaster			gunship_imperial_weapon_s01:pilotmuzzle1	gunship_imperial_weapon_s01:pilotmuzzle2	imperial_gunboat_turret_ball:turret_ball1	imperial_gunboat_turret_ball:turret_ball2	imperial_gunboat_turret_ball:turret_ball3	imperial_gunboat_turretbase_wing:turretyaw1	imperial_gunboat_turretbase_wing:turretyaw2	imperial_gunboat_turretbase_nose:turretyaw_nose1
wpn_light_blaster_green			gunship_imperial_weapon_s01:pilotmuzzle1	gunship_imperial_weapon_s01:pilotmuzzle2	imperial_gunboat_turret_ball:turret_ball1	imperial_gunboat_turret_ball:turret_ball2	imperial_gunboat_turret_ball:turret_ball3	imperial_gunboat_turretbase_wing:turretyaw1	imperial_gunboat_turretbase_wing:turretyaw2	imperial_gunboat_turretbase_nose:turretyaw_nose1
wpn_light_disruptor			gunship_imperial_weapon_s01:pilotmuzzle1	gunship_imperial_weapon_s01:pilotmuzzle2	imperial_gunboat_turret_ball:turret_ball1	imperial_gunboat_turret_ball:turret_ball2	imperial_gunboat_turret_ball:turret_ball3	imperial_gunboat_turretbase_wing:turretyaw1	imperial_gunboat_turretbase_wing:turretyaw2	imperial_gunboat_turretbase_nose:turretyaw_nose1
wpn_light_ioncannon			gunship_imperial_weapon_s01:pilotmuzzle1	gunship_imperial_weapon_s01:pilotmuzzle2	imperial_gunboat_turret_ball:turret_ball1	imperial_gunboat_turret_ball:turret_ball2	imperial_gunboat_turret_ball:turret_ball3	imperial_gunboat_turretbase_wing:turretyaw1	imperial_gunboat_turretbase_wing:turretyaw2	imperial_gunboat_turretbase_nose:turretyaw_nose1
wpn_mandal_advanced_annihilator			gunship_imperial_weapon_s01:pilotmuzzle1	gunship_imperial_weapon_s01:pilotmuzzle2	imperial_gunboat_turret_ball:turret_ball1	imperial_gunboat_turret_ball:turret_ball2	imperial_gunboat_turret_ball:turret_ball3	imperial_gunboat_turretbase_wing:turretyaw1	imperial_gunboat_turretbase_wing:turretyaw2	imperial_gunboat_turretbase_nose:turretyaw_nose1
wpn_mandal_annihilator_mk2			gunship_imperial_weapon_s01:pilotmuzzle1	gunship_imperial_weapon_s01:pilotmuzzle2	imperial_gunboat_turret_ball:turret_ball1	imperial_gunboat_turret_ball:turret_ball2	imperial_gunboat_turret_ball:turret_ball3	imperial_gunboat_turretbase_wing:turretyaw1	imperial_gunboat_turretbase_wing:turretyaw2	imperial_gunboat_turretbase_nose:turretyaw_nose1
wpn_mandal_annilhator_mk1			gunship_imperial_weapon_s01:pilotmuzzle1	gunship_imperial_weapon_s01:pilotmuzzle2	imperial_gunboat_turret_ball:turret_ball1	imperial_gunboat_turret_ball:turret_ball2	imperial_gunboat_turret_ball:turret_ball3	imperial_gunboat_turretbase_wing:turretyaw1	imperial_gunboat_turretbase_wing:turretyaw2	imperial_gunboat_turretbase_nose:turretyaw_nose1
wpn_mandal_elite_annihilator			gunship_imperial_weapon_s01:pilotmuzzle1	gunship_imperial_weapon_s01:pilotmuzzle2	imperial_gunboat_turret_ball:turret_ball1	imperial_gunboat_turret_ball:turret_ball2	imperial_gunboat_turret_ball:turret_ball3	imperial_gunboat_turretbase_wing:turretyaw1	imperial_gunboat_turretbase_wing:turretyaw2	imperial_gunboat_turretbase_nose:turretyaw_nose1
wpn_mandal_enhanced_mangler_mk1			gunship_imperial_weapon_s01:pilotmuzzle1	gunship_imperial_weapon_s01:pilotmuzzle2	imperial_gunboat_turret_ball:turret_ball1	imperial_gunboat_turret_ball:turret_ball2	imperial_gunboat_turret_ball:turret_ball3	imperial_gunboat_turretbase_wing:turretyaw1	imperial_gunboat_turretbase_wing:turretyaw2	imperial_gunboat_turretbase_nose:turretyaw_nose1
wpn_mandal_heavy_annihilator			gunship_imperial_weapon_s01:pilotmuzzle1	gunship_imperial_weapon_s01:pilotmuzzle2	imperial_gunboat_turret_ball:turret_ball1	imperial_gunboat_turret_ball:turret_ball2	imperial_gunboat_turret_ball:turret_ball3	imperial_gunboat_turretbase_wing:turretyaw1	imperial_gunboat_turretbase_wing:turretyaw2	imperial_gunboat_turretbase_nose:turretyaw_nose1
wpn_mandal_mangler_mk1			gunship_imperial_weapon_s01:pilotmuzzle1	gunship_imperial_weapon_s01:pilotmuzzle2	imperial_gunboat_turret_ball:turret_ball1	imperial_gunboat_turret_ball:turret_ball2	imperial_gunboat_turret_ball:turret_ball3	imperial_gunboat_turretbase_wing:turretyaw1	imperial_gunboat_turretbase_wing:turretyaw2	imperial_gunboat_turretbase_nose:turretyaw_nose1
wpn_mandal_qv3_disruptor			gunship_imperial_weapon_s01:pilotmuzzle1	gunship_imperial_weapon_s01:pilotmuzzle2	imperial_gunboat_turret_ball:turret_ball1	imperial_gunboat_turret_ball:turret_ball2	imperial_gunboat_turret_ball:turret_ball3	imperial_gunboat_turretbase_wing:turretyaw1	imperial_gunboat_turretbase_wing:turretyaw2	imperial_gunboat_turretbase_nose:turretyaw_nose1
wpn_mandal_qv5_disruptor			gunship_imperial_weapon_s01:pilotmuzzle1	gunship_imperial_weapon_s01:pilotmuzzle2	imperial_gunboat_turret_ball:turret_ball1	imperial_gunboat_turret_ball:turret_ball2	imperial_gunboat_turret_ball:turret_ball3	imperial_gunboat_turretbase_wing:turretyaw1	imperial_gunboat_turretbase_wing:turretyaw2	imperial_gunboat_turretbase_nose:turretyaw_nose1
wpn_mandal_super_mangler			gunship_imperial_weapon_s01:pilotmuzzle1	gunship_imperial_weapon_s01:pilotmuzzle2	imperial_gunboat_turret_ball:turret_ball1	imperial_gunboat_turret_ball:turret_ball2	imperial_gunboat_turret_ball:turret_ball3	imperial_gunboat_turretbase_wing:turretyaw1	imperial_gunboat_turretbase_wing:turretyaw2	imperial_gunboat_turretbase_nose:turretyaw_nose1
wpn_medium_blaster			gunship_imperial_weapon_s01:pilotmuzzle1	gunship_imperial_weapon_s01:pilotmuzzle2	imperial_gunboat_turret_ball:turret_ball1	imperial_gunboat_turret_ball:turret_ball2	imperial_gunboat_turret_ball:turret_ball3	imperial_gunboat_turretbase_wing:turretyaw1	imperial_gunboat_turretbase_wing:turretyaw2	imperial_gunboat_turretbase_nose:turretyaw_nose1
wpn_medium_blaster_green			gunship_imperial_weapon_s01:pilotmuzzle1	gunship_imperial_weapon_s01:pilotmuzzle2	imperial_gunboat_turret_ball:turret_ball1	imperial_gunboat_turret_ball:turret_ball2	imperial_gunboat_turret_ball:turret_ball3	imperial_gunboat_turretbase_wing:turretyaw1	imperial_gunboat_turretbase_wing:turretyaw2	imperial_gunboat_turretbase_nose:turretyaw_nose1
wpn_medium_disruptor			gunship_imperial_weapon_s01:pilotmuzzle1	gunship_imperial_weapon_s01:pilotmuzzle2	imperial_gunboat_turret_ball:turret_ball1	imperial_gunboat_turret_ball:turret_ball2	imperial_gunboat_turret_ball:turret_ball3	imperial_gunboat_turretbase_wing:turretyaw1	imperial_gunboat_turretbase_wing:turretyaw2	imperial_gunboat_turretbase_nose:turretyaw_nose1
wpn_medium_ioncannon			gunship_imperial_weapon_s01:pilotmuzzle1	gunship_imperial_weapon_s01:pilotmuzzle2	imperial_gunboat_turret_ball:turret_ball1	imperial_gunboat_turret_ball:turret_ball2	imperial_gunboat_turret_ball:turret_ball3	imperial_gunboat_turretbase_wing:turretyaw1	imperial_gunboat_turretbase_wing:turretyaw2	imperial_gunboat_turretbase_nose:turretyaw_nose1
wpn_mining_laser_mk1			gunship_imperial_weapon_s01:pilotmuzzle1	gunship_imperial_weapon_s01:pilotmuzzle2	imperial_gunboat_turret_ball:turret_ball1	imperial_gunboat_turret_ball:turret_ball2	imperial_gunboat_turret_ball:turret_ball3	imperial_gunboat_turretbase_wing:turretyaw1	imperial_gunboat_turretbase_wing:turretyaw2	imperial_gunboat_turretbase_nose:turretyaw_nose1
wpn_mining_laser_mk2			gunship_imperial_weapon_s01:pilotmuzzle1	gunship_imperial_weapon_s01:pilotmuzzle2	imperial_gunboat_turret_ball:turret_ball1	imperial_gunboat_turret_ball:turret_ball2	imperial_gunboat_turret_ball:turret_ball3	imperial_gunboat_turretbase_wing:turretyaw1	imperial_gunboat_turretbase_wing:turretyaw2	imperial_gunboat_turretbase_nose:turretyaw_nose1
wpn_mining_laser_mk3			gunship_imperial_weapon_s01:pilotmuzzle1	gunship_imperial_weapon_s01:pilotmuzzle2	imperial_gunboat_turret_ball:turret_ball1	imperial_gunboat_turret_ball:turret_ball2	imperial_gunboat_turret_ball:turret_ball3	imperial_gunboat_turretbase_wing:turretyaw1	imperial_gunboat_turretbase_wing:turretyaw2	imperial_gunboat_turretbase_nose:turretyaw_nose1
wpn_mission_reward_imperial_cygnus_starblaster			gunship_imperial_weapon_s01:pilotmuzzle1	gunship_imperial_weapon_s01:pilotmuzzle2	imperial_gunboat_turret_ball:turret_ball1	imperial_gunboat_turret_ball:turret_ball2	imperial_gunboat_turret_ball:turret_ball3	imperial_gunboat_turretbase_wing:turretyaw1	imperial_gunboat_turretbase_wing:turretyaw2	imperial_gunboat_turretbase_nose:turretyaw_nose1
wpn_mission_reward_imperial_sds_boltdriver			gunship_imperial_weapon_s01:pilotmuzzle1	gunship_imperial_weapon_s01:pilotmuzzle2	imperial_gunboat_turret_ball:turret_ball1	imperial_gunboat_turret_ball:turret_ball2	imperial_gunboat_turret_ball:turret_ball3	imperial_gunboat_turretbase_wing:turretyaw1	imperial_gunboat_turretbase_wing:turretyaw2	imperial_gunboat_turretbase_nose:turretyaw_nose1
wpn_mission_reward_neutral_borstel_disruptor			gunship_imperial_weapon_s01:pilotmuzzle1	gunship_imperial_weapon_s01:pilotmuzzle2	imperial_gunboat_turret_ball:turret_ball1	imperial_gunboat_turret_ball:turret_ball2	imperial_gunboat_turret_ball:turret_ball3	imperial_gunboat_turretbase_wing:turretyaw1	imperial_gunboat_turretbase_wing:turretyaw2	imperial_gunboat_turretbase_nose:turretyaw_nose1
wpn_mission_reward_neutral_hk_military_blaster			gunship_imperial_weapon_s01:pilotmuzzle1	gunship_imperial_weapon_s01:pilotmuzzle2	imperial_gunboat_turret_ball:turret_ball1	imperial_gunboat_turret_ball:turret_ball2	imperial_gunboat_turret_ball:turret_ball3	imperial_gunboat_turretbase_wing:turretyaw1	imperial_gunboat_turretbase_wing:turretyaw2	imperial_gunboat_turretbase_nose:turretyaw_nose1
wpn_mission_reward_neutral_mandal_light_blaster			gunship_imperial_weapon_s01:pilotmuzzle1	gunship_imperial_weapon_s01:pilotmuzzle2	imperial_gunboat_turret_ball:turret_ball1	imperial_gunboat_turret_ball:turret_ball2	imperial_gunboat_turret_ball:turret_ball3	imperial_gunboat_turretbase_wing:turretyaw1	imperial_gunboat_turretbase_wing:turretyaw2	imperial_gunboat_turretbase_nose:turretyaw_nose1
wpn_mission_reward_rebel_incom_tricannon			gunship_imperial_weapon_s01:pilotmuzzle1	gunship_imperial_weapon_s01:pilotmuzzle2	imperial_gunboat_turret_ball:turret_ball1	imperial_gunboat_turret_ball:turret_ball2	imperial_gunboat_turret_ball:turret_ball3	imperial_gunboat_turretbase_wing:turretyaw1	imperial_gunboat_turretbase_wing:turretyaw2	imperial_gunboat_turretbase_nose:turretyaw_nose1
wpn_mission_reward_rebel_taim_ion_driver			gunship_imperial_weapon_s01:pilotmuzzle1	gunship_imperial_weapon_s01:pilotmuzzle2	imperial_gunboat_turret_ball:turret_ball1	imperial_gunboat_turret_ball:turret_ball2	imperial_gunboat_turret_ball:turret_ball3	imperial_gunboat_turretbase_wing:turretyaw1	imperial_gunboat_turretbase_wing:turretyaw2	imperial_gunboat_turretbase_nose:turretyaw_nose1
wpn_moncal_light_blaster			gunship_imperial_weapon_s01:pilotmuzzle1	gunship_imperial_weapon_s01:pilotmuzzle2	imperial_gunboat_turret_ball:turret_ball1	imperial_gunboat_turret_ball:turret_ball2	imperial_gunboat_turret_ball:turret_ball3	imperial_gunboat_turretbase_wing:turretyaw1	imperial_gunboat_turretbase_wing:turretyaw2	imperial_gunboat_turretbase_nose:turretyaw_nose1
wpn_prototype			gunship_imperial_weapon_s01:pilotmuzzle1	gunship_imperial_weapon_s01:pilotmuzzle2	imperial_gunboat_turret_ball:turret_ball1	imperial_gunboat_turret_ball:turret_ball2	imperial_gunboat_turret_ball:turret_ball3	imperial_gunboat_turretbase_wing:turretyaw1	imperial_gunboat_turretbase_wing:turretyaw2	imperial_gunboat_turretbase_nose:turretyaw_nose1
wpn_prototype_tie			gunship_imperial_weapon_s01:pilotmuzzle1	gunship_imperial_weapon_s01:pilotmuzzle2	imperial_gunboat_turret_ball:turret_ball1	imperial_gunboat_turret_ball:turret_ball2	imperial_gunboat_turret_ball:turret_ball3	imperial_gunboat_turretbase_wing:turretyaw1	imperial_gunboat_turretbase_wing:turretyaw2	imperial_gunboat_turretbase_nose:turretyaw_nose1
wpn_rendili_advanced			gunship_imperial_weapon_s01:pilotmuzzle1	gunship_imperial_weapon_s01:pilotmuzzle2	imperial_gunboat_turret_ball:turret_ball1	imperial_gunboat_turret_ball:turret_ball2	imperial_gunboat_turret_ball:turret_ball3	imperial_gunboat_turretbase_wing:turretyaw1	imperial_gunboat_turretbase_wing:turretyaw2	imperial_gunboat_turretbase_nose:turretyaw_nose1
wpn_rendili_fr13_disruptor			gunship_imperial_weapon_s01:pilotmuzzle1	gunship_imperial_weapon_s01:pilotmuzzle2	imperial_gunboat_turret_ball:turret_ball1	imperial_gunboat_turret_ball:turret_ball2	imperial_gunboat_turret_ball:turret_ball3	imperial_gunboat_turretbase_wing:turretyaw1	imperial_gunboat_turretbase_wing:turretyaw2	imperial_gunboat_turretbase_nose:turretyaw_nose1
wpn_rendili_fr9_disruptor			gunship_imperial_weapon_s01:pilotmuzzle1	gunship_imperial_weapon_s01:pilotmuzzle2	imperial_gunboat_turret_ball:turret_ball1	imperial_gunboat_turret_ball:turret_ball2	imperial_gunboat_turret_ball:turret_ball3	imperial_gunboat_turretbase_wing:turretyaw1	imperial_gunboat_turretbase_wing:turretyaw2	imperial_gunboat_turretbase_nose:turretyaw_nose1
wpn_rendili_sc3_disruptor			gunship_imperial_weapon_s01:pilotmuzzle1	gunship_imperial_weapon_s01:pilotmuzzle2	imperial_gunboat_turret_ball:turret_ball1	imperial_gunboat_turret_ball:turret_ball2	imperial_gunboat_turret_ball:turret_ball3	imperial_gunboat_turretbase_wing:turretyaw1	imperial_gunboat_turretbase_wing:turretyaw2	imperial_gunboat_turretbase_nose:turretyaw_nose1
wpn_rendili_sc8_disruptor			gunship_imperial_weapon_s01:pilotmuzzle1	gunship_imperial_weapon_s01:pilotmuzzle2	imperial_gunboat_turret_ball:turret_ball1	imperial_gunboat_turret_ball:turret_ball2	imperial_gunboat_turret_ball:turret_ball3	imperial_gunboat_turretbase_wing:turretyaw1	imperial_gunboat_turretbase_wing:turretyaw2	imperial_gunboat_turretbase_nose:turretyaw_nose1
wpn_rss_imperial_cannon			gunship_imperial_weapon_s01:pilotmuzzle1	gunship_imperial_weapon_s01:pilotmuzzle2	imperial_gunboat_turret_ball:turret_ball1	imperial_gunboat_turret_ball:turret_ball2	imperial_gunboat_turret_ball:turret_ball3	imperial_gunboat_turretbase_wing:turretyaw1	imperial_gunboat_turretbase_wing:turretyaw2	imperial_gunboat_turretbase_nose:turretyaw_nose1
wpn_sds_elite			gunship_imperial_weapon_s01:pilotmuzzle1	gunship_imperial_weapon_s01:pilotmuzzle2	imperial_gunboat_turret_ball:turret_ball1	imperial_gunboat_turret_ball:turret_ball2	imperial_gunboat_turret_ball:turret_ball3	imperial_gunboat_turretbase_wing:turretyaw1	imperial_gunboat_turretbase_wing:turretyaw2	imperial_gunboat_turretbase_nose:turretyaw_nose1
wpn_sds_heavy_imperial_spc_forces_cannon			gunship_imperial_weapon_s01:pilotmuzzle1	gunship_imperial_weapon_s01:pilotmuzzle2	imperial_gunboat_turret_ball:turret_ball1	imperial_gunboat_turret_ball:turret_ball2	imperial_gunboat_turret_ball:turret_ball3	imperial_gunboat_turretbase_wing:turretyaw1	imperial_gunboat_turretbase_wing:turretyaw2	imperial_gunboat_turretbase_nose:turretyaw_nose1
wpn_sds_imperial_blaster_1			gunship_imperial_weapon_s01:pilotmuzzle1	gunship_imperial_weapon_s01:pilotmuzzle2	imperial_gunboat_turret_ball:turret_ball1	imperial_gunboat_turret_ball:turret_ball2	imperial_gunboat_turret_ball:turret_ball3	imperial_gunboat_turretbase_wing:turretyaw1	imperial_gunboat_turretbase_wing:turretyaw2	imperial_gunboat_turretbase_nose:turretyaw_nose1
wpn_sds_imperial_blaster_2			gunship_imperial_weapon_s01:pilotmuzzle1	gunship_imperial_weapon_s01:pilotmuzzle2	imperial_gunboat_turret_ball:turret_ball1	imperial_gunboat_turret_ball:turret_ball2	imperial_gunboat_turret_ball:turret_ball3	imperial_gunboat_turretbase_wing:turretyaw1	imperial_gunboat_turretbase_wing:turretyaw2	imperial_gunboat_turretbase_nose:turretyaw_nose1
wpn_sds_imperial_special_forces_cannon			gunship_imperial_weapon_s01:pilotmuzzle1	gunship_imperial_weapon_s01:pilotmuzzle2	imperial_gunboat_turret_ball:turret_ball1	imperial_gunboat_turret_ball:turret_ball2	imperial_gunboat_turret_ball:turret_ball3	imperial_gunboat_turretbase_wing:turretyaw1	imperial_gunboat_turretbase_wing:turretyaw2	imperial_gunboat_turretbase_nose:turretyaw_nose1
wpn_sds_modified_elite			gunship_imperial_weapon_s01:pilotmuzzle1	gunship_imperial_weapon_s01:pilotmuzzle2	imperial_gunboat_turret_ball:turret_ball1	imperial_gunboat_turret_ball:turret_ball2	imperial_gunboat_turret_ball:turret_ball3	imperial_gunboat_turretbase_wing:turretyaw1	imperial_gunboat_turretbase_wing:turretyaw2	imperial_gunboat_turretbase_nose:turretyaw_nose1
wpn_seinar_disruptor			gunship_imperial_weapon_s01:pilotmuzzle1	gunship_imperial_weapon_s01:pilotmuzzle2	imperial_gunboat_turret_ball:turret_ball1	imperial_gunboat_turret_ball:turret_ball2	imperial_gunboat_turret_ball:turret_ball3	imperial_gunboat_turretbase_wing:turretyaw1	imperial_gunboat_turretbase_wing:turretyaw2	imperial_gunboat_turretbase_nose:turretyaw_nose1
wpn_seinar_ion_cannon			gunship_imperial_weapon_s01:pilotmuzzle1	gunship_imperial_weapon_s01:pilotmuzzle2	imperial_gunboat_turret_ball:turret_ball1	imperial_gunboat_turret_ball:turret_ball2	imperial_gunboat_turret_ball:turret_ball3	imperial_gunboat_turretbase_wing:turretyaw1	imperial_gunboat_turretbase_wing:turretyaw2	imperial_gunboat_turretbase_nose:turretyaw_nose1
wpn_seinar_linked_cannon			gunship_imperial_weapon_s01:pilotmuzzle1	gunship_imperial_weapon_s01:pilotmuzzle2	imperial_gunboat_turret_ball:turret_ball1	imperial_gunboat_turret_ball:turret_ball2	imperial_gunboat_turret_ball:turret_ball3	imperial_gunboat_turretbase_wing:turretyaw1	imperial_gunboat_turretbase_wing:turretyaw2	imperial_gunboat_turretbase_nose:turretyaw_nose1
wpn_seinar_ls1			gunship_imperial_weapon_s01:pilotmuzzle1	gunship_imperial_weapon_s01:pilotmuzzle2	imperial_gunboat_turret_ball:turret_ball1	imperial_gunboat_turret_ball:turret_ball2	imperial_gunboat_turret_ball:turret_ball3	imperial_gunboat_turretbase_wing:turretyaw1	imperial_gunboat_turretbase_wing:turretyaw2	imperial_gunboat_turretbase_nose:turretyaw_nose1
wpn_seinar_ls72			gunship_imperial_weapon_s01:pilotmuzzle1	gunship_imperial_weapon_s01:pilotmuzzle2	imperial_gunboat_turret_ball:turret_ball1	imperial_gunboat_turret_ball:turret_ball2	imperial_gunboat_turret_ball:turret_ball3	imperial_gunboat_turretbase_wing:turretyaw1	imperial_gunboat_turretbase_wing:turretyaw2	imperial_gunboat_turretbase_nose:turretyaw_nose1
wpn_sfs_elite			gunship_imperial_weapon_s01:pilotmuzzle1	gunship_imperial_weapon_s01:pilotmuzzle2	imperial_gunboat_turret_ball:turret_ball1	imperial_gunboat_turret_ball:turret_ball2	imperial_gunboat_turret_ball:turret_ball3	imperial_gunboat_turretbase_wing:turretyaw1	imperial_gunboat_turretbase_wing:turretyaw2	imperial_gunboat_turretbase_nose:turretyaw_nose1
wpn_sfs_imperial_blaster_1			gunship_imperial_weapon_s01:pilotmuzzle1	gunship_imperial_weapon_s01:pilotmuzzle2	imperial_gunboat_turret_ball:turret_ball1	imperial_gunboat_turret_ball:turret_ball2	imperial_gunboat_turret_ball:turret_ball3	imperial_gunboat_turretbase_wing:turretyaw1	imperial_gunboat_turretbase_wing:turretyaw2	imperial_gunboat_turretbase_nose:turretyaw_nose1
wpn_sfs_imperial_blaster_2			gunship_imperial_weapon_s01:pilotmuzzle1	gunship_imperial_weapon_s01:pilotmuzzle2	imperial_gunboat_turret_ball:turret_ball1	imperial_gunboat_turret_ball:turret_ball2	imperial_gunboat_turret_ball:turret_ball3	imperial_gunboat_turretbase_wing:turretyaw1	imperial_gunboat_turretbase_wing:turretyaw2	imperial_gunboat_turretbase_nose:turretyaw_nose1
wpn_sfs_imperial_blaster_3			gunship_imperial_weapon_s01:pilotmuzzle1	gunship_imperial_weapon_s01:pilotmuzzle2	imperial_gunboat_turret_ball:turret_ball1	imperial_gunboat_turret_ball:turret_ball2	imperial_gunboat_turret_ball:turret_ball3	imperial_gunboat_turretbase_wing:turretyaw1	imperial_gunboat_turretbase_wing:turretyaw2	imperial_gunboat_turretbase_nose:turretyaw_nose1
wpn_sfs_imperial_blaster_4			gunship_imperial_weapon_s01:pilotmuzzle1	gunship_imperial_weapon_s01:pilotmuzzle2	imperial_gunboat_turret_ball:turret_ball1	imperial_gunboat_turret_ball:turret_ball2	imperial_gunboat_turret_ball:turret_ball3	imperial_gunboat_turretbase_wing:turretyaw1	imperial_gunboat_turretbase_wing:turretyaw2	imperial_gunboat_turretbase_nose:turretyaw_nose1
wpn_sfs_imperial_special_forces_blaster			gunship_imperial_weapon_s01:pilotmuzzle1	gunship_imperial_weapon_s01:pilotmuzzle2	imperial_gunboat_turret_ball:turret_ball1	imperial_gunboat_turret_ball:turret_ball2	imperial_gunboat_turret_ball:turret_ball3	imperial_gunboat_turretbase_wing:turretyaw1	imperial_gunboat_turretbase_wing:turretyaw2	imperial_gunboat_turretbase_nose:turretyaw_nose1
wpn_sfs_improved_imperial_blaster_2			gunship_imperial_weapon_s01:pilotmuzzle1	gunship_imperial_weapon_s01:pilotmuzzle2	imperial_gunboat_turret_ball:turret_ball1	imperial_gunboat_turret_ball:turret_ball2	imperial_gunboat_turret_ball:turret_ball3	imperial_gunboat_turretbase_wing:turretyaw1	imperial_gunboat_turretbase_wing:turretyaw2	imperial_gunboat_turretbase_nose:turretyaw_nose1
wpn_slayn_deluxe_light_ioncannon			gunship_imperial_weapon_s01:pilotmuzzle1	gunship_imperial_weapon_s01:pilotmuzzle2	imperial_gunboat_turret_ball:turret_ball1	imperial_gunboat_turret_ball:turret_ball2	imperial_gunboat_turret_ball:turret_ball3	imperial_gunboat_turretbase_wing:turretyaw1	imperial_gunboat_turretbase_wing:turretyaw2	imperial_gunboat_turretbase_nose:turretyaw_nose1
wpn_slayn_ioncannon			gunship_imperial_weapon_s01:pilotmuzzle1	gunship_imperial_weapon_s01:pilotmuzzle2	imperial_gunboat_turret_ball:turret_ball1	imperial_gunboat_turret_ball:turret_ball2	imperial_gunboat_turret_ball:turret_ball3	imperial_gunboat_turretbase_wing:turretyaw1	imperial_gunboat_turretbase_wing:turretyaw2	imperial_gunboat_turretbase_nose:turretyaw_nose1
wpn_slayn_light_ioncannon			gunship_imperial_weapon_s01:pilotmuzzle1	gunship_imperial_weapon_s01:pilotmuzzle2	imperial_gunboat_turret_ball:turret_ball1	imperial_gunboat_turret_ball:turret_ball2	imperial_gunboat_turret_ball:turret_ball3	imperial_gunboat_turretbase_wing:turretyaw1	imperial_gunboat_turretbase_wing:turretyaw2	imperial_gunboat_turretbase_nose:turretyaw_nose1
wpn_subpro_advanced_cannon			gunship_imperial_weapon_s01:pilotmuzzle1	gunship_imperial_weapon_s01:pilotmuzzle2	imperial_gunboat_turret_ball:turret_ball1	imperial_gunboat_turret_ball:turret_ball2	imperial_gunboat_turret_ball:turret_ball3	imperial_gunboat_turretbase_wing:turretyaw1	imperial_gunboat_turretbase_wing:turretyaw2	imperial_gunboat_turretbase_nose:turretyaw_nose1
wpn_subpro_improved_light_ioncannon			gunship_imperial_weapon_s01:pilotmuzzle1	gunship_imperial_weapon_s01:pilotmuzzle2	imperial_gunboat_turret_ball:turret_ball1	imperial_gunboat_turret_ball:turret_ball2	imperial_gunboat_turret_ball:turret_ball3	imperial_gunboat_turretbase_wing:turretyaw1	imperial_gunboat_turretbase_wing:turretyaw2	imperial_gunboat_turretbase_nose:turretyaw_nose1
wpn_subpro_light_ioncannon			gunship_imperial_weapon_s01:pilotmuzzle1	gunship_imperial_weapon_s01:pilotmuzzle2	imperial_gunboat_turret_ball:turret_ball1	imperial_gunboat_turret_ball:turret_ball2	imperial_gunboat_turret_ball:turret_ball3	imperial_gunboat_turretbase_wing:turretyaw1	imperial_gunboat_turretbase_wing:turretyaw2	imperial_gunboat_turretbase_nose:turretyaw_nose1
wpn_subpro_modified_tricannon			gunship_imperial_weapon_s01:pilotmuzzle1	gunship_imperial_weapon_s01:pilotmuzzle2	imperial_gunboat_turret_ball:turret_ball1	imperial_gunboat_turret_ball:turret_ball2	imperial_gunboat_turret_ball:turret_ball3	imperial_gunboat_turretbase_wing:turretyaw1	imperial_gunboat_turretbase_wing:turretyaw2	imperial_gunboat_turretbase_nose:turretyaw_nose1
wpn_subpro_tricannon			gunship_imperial_weapon_s01:pilotmuzzle1	gunship_imperial_weapon_s01:pilotmuzzle2	imperial_gunboat_turret_ball:turret_ball1	imperial_gunboat_turret_ball:turret_ball2	imperial_gunboat_turret_ball:turret_ball3	imperial_gunboat_turretbase_wing:turretyaw1	imperial_gunboat_turretbase_wing:turretyaw2	imperial_gunboat_turretbase_nose:turretyaw_nose1
wpn_subpro_tripleblaster			gunship_imperial_weapon_s01:pilotmuzzle1	gunship_imperial_weapon_s01:pilotmuzzle2	imperial_gunboat_turret_ball:turret_ball1	imperial_gunboat_turret_ball:turret_ball2	imperial_gunboat_turret_ball:turret_ball3	imperial_gunboat_turretbase_wing:turretyaw1	imperial_gunboat_turretbase_wing:turretyaw2	imperial_gunboat_turretbase_nose:turretyaw_nose1
wpn_subpro_tripleblaster_mark2			gunship_imperial_weapon_s01:pilotmuzzle1	gunship_imperial_weapon_s01:pilotmuzzle2	imperial_gunboat_turret_ball:turret_ball1	imperial_gunboat_turret_ball:turret_ball2	imperial_gunboat_turret_ball:turret_ball3	imperial_gunboat_turretbase_wing:turretyaw1	imperial_gunboat_turretbase_wing:turretyaw2	imperial_gunboat_turretbase_nose:turretyaw_nose1
wpn_subpro_tripleblaster_mark3			gunship_imperial_weapon_s01:pilotmuzzle1	gunship_imperial_weapon_s01:pilotmuzzle2	imperial_gunboat_turret_ball:turret_ball1	imperial_gunboat_turret_ball:turret_ball2	imperial_gunboat_turret_ball:turret_ball3	imperial_gunboat_turretbase_wing:turretyaw1	imperial_gunboat_turretbase_wing:turretyaw2	imperial_gunboat_turretbase_nose:turretyaw_nose1
wpn_taim_elite			gunship_imperial_weapon_s01:pilotmuzzle1	gunship_imperial_weapon_s01:pilotmuzzle2	imperial_gunboat_turret_ball:turret_ball1	imperial_gunboat_turret_ball:turret_ball2	imperial_gunboat_turret_ball:turret_ball3	imperial_gunboat_turretbase_wing:turretyaw1	imperial_gunboat_turretbase_wing:turretyaw2	imperial_gunboat_turretbase_nose:turretyaw_nose1
wpn_taim_heavy_laser			gunship_imperial_weapon_s01:pilotmuzzle1	gunship_imperial_weapon_s01:pilotmuzzle2	imperial_gunboat_turret_ball:turret_ball1	imperial_gunboat_turret_ball:turret_ball2	imperial_gunboat_turret_ball:turret_ball3	imperial_gunboat_turretbase_wing:turretyaw1	imperial_gunboat_turretbase_wing:turretyaw2	imperial_gunboat_turretbase_nose:turretyaw_nose1
wpn_taim_ix4			gunship_imperial_weapon_s01:pilotmuzzle1	gunship_imperial_weapon_s01:pilotmuzzle2	imperial_gunboat_turret_ball:turret_ball1	imperial_gunboat_turret_ball:turret_ball2	imperial_gunboat_turret_ball:turret_ball3	imperial_gunboat_turretbase_wing:turretyaw1	imperial_gunboat_turretbase_wing:turretyaw2	imperial_gunboat_turretbase_nose:turretyaw_nose1
wpn_taim_ix5			gunship_imperial_weapon_s01:pilotmuzzle1	gunship_imperial_weapon_s01:pilotmuzzle2	imperial_gunboat_turret_ball:turret_ball1	imperial_gunboat_turret_ball:turret_ball2	imperial_gunboat_turret_ball:turret_ball3	imperial_gunboat_turretbase_wing:turretyaw1	imperial_gunboat_turretbase_wing:turretyaw2	imperial_gunboat_turretbase_nose:turretyaw_nose1
wpn_taim_kx5			gunship_imperial_weapon_s01:pilotmuzzle1	gunship_imperial_weapon_s01:pilotmuzzle2	imperial_gunboat_turret_ball:turret_ball1	imperial_gunboat_turret_ball:turret_ball2	imperial_gunboat_turret_ball:turret_ball3	imperial_gunboat_turretbase_wing:turretyaw1	imperial_gunboat_turretbase_wing:turretyaw2	imperial_gunboat_turretbase_nose:turretyaw_nose1
wpn_taim_kx8			gunship_imperial_weapon_s01:pilotmuzzle1	gunship_imperial_weapon_s01:pilotmuzzle2	imperial_gunboat_turret_ball:turret_ball1	imperial_gunboat_turret_ball:turret_ball2	imperial_gunboat_turret_ball:turret_ball3	imperial_gunboat_turretbase_wing:turretyaw1	imperial_gunboat_turretbase_wing:turretyaw2	imperial_gunboat_turretbase_nose:turretyaw_nose1
wpn_taim_kx9			gunship_imperial_weapon_s01:pilotmuzzle1	gunship_imperial_weapon_s01:pilotmuzzle2	imperial_gunboat_turret_ball:turret_ball1	imperial_gunboat_turret_ball:turret_ball2	imperial_gunboat_turret_ball:turret_ball3	imperial_gunboat_turretbase_wing:turretyaw1	imperial_gunboat_turretbase_wing:turretyaw2	imperial_gunboat_turretbase_nose:turretyaw_nose1
wpn_tieadvanced_blaster			gunship_imperial_weapon_s01:pilotmuzzle1	gunship_imperial_weapon_s01:pilotmuzzle2	imperial_gunboat_turret_ball:turret_ball1	imperial_gunboat_turret_ball:turret_ball2	imperial_gunboat_turret_ball:turret_ball3	imperial_gunboat_turretbase_wing:turretyaw1	imperial_gunboat_turretbase_wing:turretyaw2	imperial_gunboat_turretbase_nose:turretyaw_nose1
wpn_tractor_pulse_gun			gunship_imperial_weapon_s01:pilotmuzzle1	gunship_imperial_weapon_s01:pilotmuzzle2	imperial_gunboat_turret_ball:turret_ball1	imperial_gunboat_turret_ball:turret_ball2	imperial_gunboat_turret_ball:turret_ball3	imperial_gunboat_turretbase_wing:turretyaw1	imperial_gunboat_turretbase_wing:turretyaw2	imperial_gunboat_turretbase_nose:turretyaw_nose1
wpn_trandoshan_fg1a			gunship_imperial_weapon_s01:pilotmuzzle1	gunship_imperial_weapon_s01:pilotmuzzle2	imperial_gunboat_turret_ball:turret_ball1	imperial_gunboat_turret_ball:turret_ball2	imperial_gunboat_turret_ball:turret_ball3	imperial_gunboat_turretbase_wing:turretyaw1	imperial_gunboat_turretbase_wing:turretyaw2	imperial_gunboat_turretbase_nose:turretyaw_nose1
wpn_vengeance_ion_cannon			gunship_imperial_weapon_s01:pilotmuzzle1	gunship_imperial_weapon_s01:pilotmuzzle2	imperial_gunboat_turret_ball:turret_ball1	imperial_gunboat_turret_ball:turret_ball2	imperial_gunboat_turret_ball:turret_ball3	imperial_gunboat_turretbase_wing:turretyaw1	imperial_gunboat_turretbase_wing:turretyaw2	imperial_gunboat_turretbase_nose:turretyaw_nose1
wpn_vulcan_cannon			gunship_imperial_weapon_s01:pilotmuzzle1	gunship_imperial_weapon_s01:pilotmuzzle2	imperial_gunboat_turret_ball:turret_ball1	imperial_gunboat_turret_ball:turret_ball2	imperial_gunboat_turret_ball:turret_ball3	imperial_gunboat_turretbase_wing:turretyaw1	imperial_gunboat_turretbase_wing:turretyaw2	imperial_gunboat_turretbase_nose:turretyaw_nose1
wpn_z95_blaster			gunship_imperial_weapon_s01:pilotmuzzle1	gunship_imperial_weapon_s01:pilotmuzzle2	imperial_gunboat_turret_ball:turret_ball1	imperial_gunboat_turret_ball:turret_ball2	imperial_gunboat_turret_ball:turret_ball3	imperial_gunboat_turretbase_wing:turretyaw1	imperial_gunboat_turretbase_wing:turretyaw2	imperial_gunboat_turretbase_nose:turretyaw_nose1
wpn_heavy_ionic_pulse_weapon			gunship_imperial_weapon_s01:pilotmuzzle1	gunship_imperial_weapon_s01:pilotmuzzle2	imperial_gunboat_turret_ball:turret_ball1	imperial_gunboat_turret_ball:turret_ball2	imperial_gunboat_turret_ball:turret_ball3	imperial_gunboat_turretbase_wing:turretyaw1	imperial_gunboat_turretbase_wing:turretyaw2	imperial_gunboat_turretbase_nose:turretyaw_nose1
wpn_crafted_mining_laser_mk1			gunship_imperial_weapon_s01:pilotmuzzle1	gunship_imperial_weapon_s01:pilotmuzzle2	imperial_gunboat_turret_ball:turret_ball1	imperial_gunboat_turret_ball:turret_ball2	imperial_gunboat_turret_ball:turret_ball3	imperial_gunboat_turretbase_wing:turretyaw1	imperial_gunboat_turretbase_wing:turretyaw2	imperial_gunboat_turretbase_nose:turretyaw_nose1
wpn_crafted_mining_laser_mk2			gunship_imperial_weapon_s01:pilotmuzzle1	gunship_imperial_weapon_s01:pilotmuzzle2	imperial_gunboat_turret_ball:turret_ball1	imperial_gunboat_turret_ball:turret_ball2	imperial_gunboat_turret_ball:turret_ball3	imperial_gunboat_turretbase_wing:turretyaw1	imperial_gunboat_turretbase_wing:turretyaw2	imperial_gunboat_turretbase_nose:turretyaw_nose1
wpn_crafted_mining_laser_mk3			gunship_imperial_weapon_s01:pilotmuzzle1	gunship_imperial_weapon_s01:pilotmuzzle2	imperial_gunboat_turret_ball:turret_ball1	imperial_gunboat_turret_ball:turret_ball2	imperial_gunboat_turret_ball:turret_ball3	imperial_gunboat_turretbase_wing:turretyaw1	imperial_gunboat_turretbase_wing:turretyaw2	imperial_gunboat_turretbase_nose:turretyaw_nose1
wpn_crafted_mining_laser_elite			gunship_imperial_weapon_s01:pilotmuzzle1	gunship_imperial_weapon_s01:pilotmuzzle2	imperial_gunboat_turret_ball:turret_ball1	imperial_gunboat_turret_ball:turret_ball2	imperial_gunboat_turret_ball:turret_ball3	imperial_gunboat_turretbase_wing:turretyaw1	imperial_gunboat_turretbase_wing:turretyaw2	imperial_gunboat_turretbase_nose:turretyaw_nose1
wpn_ionic_pulse_weapon			gunship_imperial_weapon_s01:pilotmuzzle1	gunship_imperial_weapon_s01:pilotmuzzle2	imperial_gunboat_turret_ball:turret_ball1	imperial_gunboat_turret_ball:turret_ball2	imperial_gunboat_turret_ball:turret_ball3	imperial_gunboat_turretbase_wing:turretyaw1	imperial_gunboat_turretbase_wing:turretyaw2	imperial_gunboat_turretbase_nose:turretyaw_nose1
wpn_reward_seinar_elite			gunship_imperial_weapon_s01:pilotmuzzle1	gunship_imperial_weapon_s01:pilotmuzzle2	imperial_gunboat_turret_ball:turret_ball1	imperial_gunboat_turret_ball:turret_ball2	imperial_gunboat_turret_ball:turret_ball3	imperial_gunboat_turretbase_wing:turretyaw1	imperial_gunboat_turretbase_wing:turretyaw2	imperial_gunboat_turretbase_nose:turretyaw_nose1
wpn_kessel_imperial_rendili_prototype_x			gunship_imperial_weapon_s01:pilotmuzzle1	gunship_imperial_weapon_s01:pilotmuzzle2	imperial_gunboat_turret_ball:turret_ball1	imperial_gunboat_turret_ball:turret_ball2	imperial_gunboat_turret_ball:turret_ball3	imperial_gunboat_turretbase_wing:turretyaw1	imperial_gunboat_turretbase_wing:turretyaw2	imperial_gunboat_turretbase_nose:turretyaw_nose1
wpn_kessel_imperial_sds_experimental_secret_ops			gunship_imperial_weapon_s01:pilotmuzzle1	gunship_imperial_weapon_s01:pilotmuzzle2	imperial_gunboat_turret_ball:turret_ball1	imperial_gunboat_turret_ball:turret_ball2	imperial_gunboat_turret_ball:turret_ball3	imperial_gunboat_turretbase_wing:turretyaw1	imperial_gunboat_turretbase_wing:turretyaw2	imperial_gunboat_turretbase_nose:turretyaw_nose1
wpn_kessel_imperial_sfs_elite_ops			gunship_imperial_weapon_s01:pilotmuzzle1	gunship_imperial_weapon_s01:pilotmuzzle2	imperial_gunboat_turret_ball:turret_ball1	imperial_gunboat_turret_ball:turret_ball2	imperial_gunboat_turret_ball:turret_ball3	imperial_gunboat_turretbase_wing:turretyaw1	imperial_gunboat_turretbase_wing:turretyaw2	imperial_gunboat_turretbase_nose:turretyaw_nose1
wpn_kessel_rebel_incom_dualcore_flashcannon			gunship_imperial_weapon_s01:pilotmuzzle1	gunship_imperial_weapon_s01:pilotmuzzle2	imperial_gunboat_turret_ball:turret_ball1	imperial_gunboat_turret_ball:turret_ball2	imperial_gunboat_turret_ball:turret_ball3	imperial_gunboat_turretbase_wing:turretyaw1	imperial_gunboat_turretbase_wing:turretyaw2	imperial_gunboat_turretbase_nose:turretyaw_nose1
wpn_kessel_rebel_riiz_combine_slammer_cannon			gunship_imperial_weapon_s01:pilotmuzzle1	gunship_imperial_weapon_s01:pilotmuzzle2	imperial_gunboat_turret_ball:turret_ball1	imperial_gunboat_turret_ball:turret_ball2	imperial_gunboat_turret_ball:turret_ball3	imperial_gunboat_turretbase_wing:turretyaw1	imperial_gunboat_turretbase_wing:turretyaw2	imperial_gunboat_turretbase_nose:turretyaw_nose1
wpn_kessel_rebel_unknown_rayslinger			gunship_imperial_weapon_s01:pilotmuzzle1	gunship_imperial_weapon_s01:pilotmuzzle2	imperial_gunboat_turret_ball:turret_ball1	imperial_gunboat_turret_ball:turret_ball2	imperial_gunboat_turret_ball:turret_ball3	imperial_gunboat_turretbase_wing:turretyaw1	imperial_gunboat_turretbase_wing:turretyaw2	imperial_gunboat_turretbase_nose:turretyaw_nose1
wpn_reward_incom_elite			gunship_imperial_weapon_s01:pilotmuzzle1	gunship_imperial_weapon_s01:pilotmuzzle2	imperial_gunboat_turret_ball:turret_ball1	imperial_gunboat_turret_ball:turret_ball2	imperial_gunboat_turret_ball:turret_ball3	imperial_gunboat_turretbase_wing:turretyaw1	imperial_gunboat_turretbase_wing:turretyaw2	imperial_gunboat_turretbase_nose:turretyaw_nose1
wpn_reward_seinar_elite			gunship_imperial_weapon_s01:pilotmuzzle1	gunship_imperial_weapon_s01:pilotmuzzle2	imperial_gunboat_turret_ball:turret_ball1	imperial_gunboat_turret_ball:turret_ball2	imperial_gunboat_turret_ball:turret_ball3	imperial_gunboat_turretbase_wing:turretyaw1	imperial_gunboat_turretbase_wing:turretyaw2	imperial_gunboat_turretbase_nose:turretyaw_nose1
wpn_reward_slayn_elite			gunship_imperial_weapon_s01:pilotmuzzle1	gunship_imperial_weapon_s01:pilotmuzzle2	imperial_gunboat_turret_ball:turret_ball1	imperial_gunboat_turret_ball:turret_ball2	imperial_gunboat_turret_ball:turret_ball3	imperial_gunboat_turretbase_wing:turretyaw1	imperial_gunboat_turretbase_wing:turretyaw2	imperial_gunboat_turretbase_nose:turretyaw_nose1
wpn_reward_subpro_elite			gunship_imperial_weapon_s01:pilotmuzzle1	gunship_imperial_weapon_s01:pilotmuzzle2	imperial_gunboat_turret_ball:turret_ball1	imperial_gunboat_turret_ball:turret_ball2	imperial_gunboat_turret_ball:turret_ball3	imperial_gunboat_turretbase_wing:turretyaw1	imperial_gunboat_turretbase_wing:turretyaw2	imperial_gunboat_turretbase_nose:turretyaw_nose1
wpn_reward_taim_elite			gunship_imperial_weapon_s01:pilotmuzzle1	gunship_imperial_weapon_s01:pilotmuzzle2	imperial_gunboat_turret_ball:turret_ball1	imperial_gunboat_turret_ball:turret_ball2	imperial_gunboat_turret_ball:turret_ball3	imperial_gunboat_turretbase_wing:turretyaw1	imperial_gunboat_turretbase_wing:turretyaw2	imperial_gunboat_turretbase_nose:turretyaw_nose1
wpn_nova_ioncannon			gunship_imperial_weapon_s01:pilotmuzzle1	gunship_imperial_weapon_s01:pilotmuzzle2	imperial_gunboat_turret_ball:turret_ball1	imperial_gunboat_turret_ball:turret_ball2	imperial_gunboat_turret_ball:turret_ball3	imperial_gunboat_turretbase_wing:turretyaw1	imperial_gunboat_turretbase_wing:turretyaw2	imperial_gunboat_turretbase_nose:turretyaw_nose1
wpn_orion_disruptor			gunship_imperial_weapon_s01:pilotmuzzle1	gunship_imperial_weapon_s01:pilotmuzzle2	imperial_gunboat_turret_ball:turret_ball1	imperial_gunboat_turret_ball:turret_ball2	imperial_gunboat_turret_ball:turret_ball3	imperial_gunboat_turretbase_wing:turretyaw1	imperial_gunboat_turretbase_wing:turretyaw2	imperial_gunboat_turretbase_nose:turretyaw_nose1
